<svg width="143" height="39" viewBox="0 0 143 39" fill="none" xmlns="http://www.w3.org/2000/svg">
<path fill-rule="evenodd" clip-rule="evenodd" d="M126.38 22.8905C126.38 22.9228 126.287 22.9495 126.173 22.9495C126.059 22.9495 125.965 22.9761 125.965 23.0088C125.965 23.0415 125.899 23.0682 125.817 23.0682C125.725 23.0682 125.669 23.1016 125.669 23.157C125.669 23.2064 125.617 23.2458 125.551 23.2458C125.486 23.2458 125.432 23.2725 125.432 23.3048C125.432 23.3375 125.366 23.3641 125.284 23.3641C125.192 23.3641 125.137 23.3975 125.137 23.453C125.137 23.5016 125.108 23.5418 125.074 23.5418C124.994 23.5418 124.722 23.814 124.722 23.8943C124.722 23.9284 124.693 23.9564 124.658 23.9564C124.577 23.9564 124.426 24.1071 124.426 24.1888C124.426 24.224 124.397 24.2524 124.362 24.2524C124.266 24.2524 124.13 24.4091 124.13 24.5189C124.13 24.6287 123.993 24.7854 123.897 24.7854C123.862 24.7854 123.834 24.8785 123.834 24.9925C123.834 25.1066 123.807 25.2 123.774 25.2C123.742 25.2 123.715 25.2665 123.715 25.3478C123.715 25.4402 123.682 25.496 123.626 25.496C123.559 25.496 123.538 25.5685 123.538 25.792C123.538 25.9551 123.511 26.0883 123.478 26.0883C123.442 26.0883 123.419 26.3349 123.419 26.7101C123.419 27.085 123.442 27.3319 123.478 27.3319C123.511 27.3319 123.538 27.4651 123.538 27.6279C123.538 27.8517 123.559 27.9239 123.626 27.9239C123.688 27.9239 123.715 27.9864 123.715 28.1314C123.715 28.2451 123.742 28.3385 123.774 28.3385C123.807 28.3385 123.834 28.4053 123.834 28.4867C123.834 28.5787 123.867 28.6345 123.922 28.6345C123.978 28.6345 124.011 28.6906 124.011 28.7826C124.011 28.864 124.038 28.9308 124.071 28.9308C124.103 28.9308 124.13 28.9841 124.13 29.0491C124.13 29.1141 124.156 29.1674 124.189 29.1674C124.222 29.1674 124.248 29.2076 124.248 29.2563C124.248 29.3053 124.288 29.3451 124.337 29.3451C124.392 29.3451 124.426 29.4012 124.426 29.4933C124.426 29.5746 124.453 29.6414 124.485 29.6414C124.518 29.6414 124.544 29.6947 124.544 29.7597C124.544 29.8255 124.584 29.8781 124.633 29.8781C124.688 29.8781 124.722 29.9342 124.722 30.0262C124.722 30.1076 124.749 30.1744 124.781 30.1744C124.814 30.1744 124.84 30.2142 124.84 30.2632C124.84 30.3119 124.867 30.352 124.9 30.352C124.932 30.352 124.959 30.4053 124.959 30.4704C124.959 30.5361 124.998 30.5887 125.048 30.5887C125.103 30.5887 125.137 30.6448 125.137 30.7368C125.137 30.8182 125.163 30.885 125.196 30.885C125.228 30.885 125.255 30.9515 125.255 31.0328C125.255 31.1145 125.283 31.181 125.318 31.181C125.423 31.181 125.551 31.3416 125.551 31.4727C125.551 31.5402 125.577 31.5956 125.61 31.5956C125.643 31.5956 125.669 31.6621 125.669 31.7434C125.669 31.8252 125.698 31.8916 125.733 31.8916C125.837 31.8916 125.965 32.0522 125.965 32.1833C125.965 32.253 126.004 32.3063 126.054 32.3063C126.11 32.3063 126.143 32.362 126.143 32.4541C126.143 32.5358 126.17 32.6022 126.202 32.6022C126.235 32.6022 126.261 32.6573 126.261 32.7248C126.261 32.8559 126.39 33.0169 126.494 33.0169C126.529 33.0169 126.558 33.0833 126.558 33.1647C126.558 33.2464 126.584 33.3129 126.617 33.3129C126.649 33.3129 126.676 33.3797 126.676 33.461C126.676 33.5424 126.704 33.6088 126.74 33.6088C126.844 33.6088 126.972 33.7698 126.972 33.9009C126.972 33.9684 126.999 34.0235 127.031 34.0235C127.064 34.0235 127.091 34.0903 127.091 34.1716C127.091 34.2637 127.124 34.3194 127.18 34.3194C127.23 34.3194 127.268 34.3727 127.268 34.4424C127.268 34.5735 127.396 34.7341 127.501 34.7341C127.536 34.7341 127.564 34.8009 127.564 34.8823C127.564 34.9636 127.591 35.0301 127.624 35.0301C127.656 35.0301 127.683 35.0969 127.683 35.1782C127.683 35.2596 127.709 35.3264 127.742 35.3264C127.775 35.3264 127.801 35.3797 127.801 35.4447C127.801 35.5105 127.841 35.563 127.89 35.563C127.939 35.563 127.979 35.6032 127.979 35.6519C127.979 35.7009 128.006 35.7407 128.038 35.7407C128.071 35.7407 128.097 35.8075 128.097 35.8889C128.097 35.9809 128.131 36.037 128.186 36.037C128.236 36.037 128.275 36.0896 128.275 36.1553C128.275 36.2204 128.302 36.2737 128.334 36.2737C128.367 36.2737 128.393 36.3138 128.393 36.3625C128.393 36.4115 128.42 36.4513 128.453 36.4513C128.485 36.4513 128.512 36.495 128.512 36.5487C128.512 36.6528 128.827 36.9843 128.926 36.9843C128.959 36.9843 128.986 37.0124 128.986 37.0465C128.986 37.1595 129.57 37.6949 129.693 37.6949C129.76 37.6949 129.815 37.7237 129.815 37.7585C129.815 37.863 129.975 37.9912 130.107 37.9912C130.176 37.9912 130.229 38.0296 130.229 38.0801C130.229 38.1419 130.292 38.1689 130.436 38.1689C130.55 38.1689 130.644 38.1955 130.644 38.2279C130.644 38.2606 130.777 38.2872 130.94 38.2872C131.103 38.2872 131.236 38.3139 131.236 38.3465C131.236 38.3828 131.512 38.4055 131.946 38.4055C132.381 38.4055 132.657 38.3828 132.657 38.3465C132.657 38.3139 132.802 38.2872 132.979 38.2872C133.157 38.2872 133.318 38.2606 133.338 38.2279C133.358 38.1955 133.427 38.1689 133.492 38.1689C133.556 38.1689 133.624 38.1287 133.642 38.0801C133.661 38.031 133.727 37.9912 133.789 37.9912C133.85 37.9912 133.901 37.9646 133.901 37.9319C133.901 37.8992 133.967 37.8726 134.049 37.8726C134.141 37.8726 134.197 37.8392 134.197 37.7837C134.197 37.7351 134.237 37.6949 134.286 37.6949C134.334 37.6949 134.375 37.6683 134.375 37.6359C134.375 37.6032 134.428 37.5766 134.493 37.5766C134.558 37.5766 134.611 37.5499 134.611 37.5172C134.611 37.4849 134.651 37.4583 134.7 37.4583C134.749 37.4583 134.789 37.4295 134.789 37.3947C134.789 37.3126 134.94 37.1619 135.022 37.1619C135.056 37.1619 135.085 37.1278 135.085 37.0863C135.085 37.0447 135.139 36.9722 135.204 36.9253C135.269 36.8784 135.322 36.7789 135.322 36.705C135.322 36.6244 135.358 36.57 135.411 36.57C135.466 36.57 135.5 36.5139 135.5 36.4218C135.5 36.3405 135.526 36.2737 135.559 36.2737C135.592 36.2737 135.618 36.2232 135.618 36.1617C135.618 36.0999 135.658 36.0342 135.707 36.0154C135.756 35.9969 135.796 35.9272 135.796 35.8611C135.796 35.7951 135.822 35.7407 135.855 35.7407C135.888 35.7407 135.914 35.6075 135.914 35.4447C135.914 35.282 135.941 35.1487 135.974 35.1487C136.01 35.1487 136.032 34.8524 136.032 34.3788C136.032 33.9052 136.01 33.6088 135.974 33.6088C135.941 33.6088 135.914 33.4756 135.914 33.3129C135.914 33.1501 135.888 33.0169 135.855 33.0169C135.822 33.0169 135.796 32.9636 135.796 32.8982C135.796 32.8325 135.756 32.7799 135.707 32.7799C135.652 32.7799 135.618 32.7241 135.618 32.6317C135.618 32.5504 135.592 32.4839 135.559 32.4839C135.526 32.4839 135.5 32.4171 135.5 32.3357C135.5 32.2437 135.466 32.1876 135.411 32.1876C135.356 32.1876 135.322 32.1318 135.322 32.0398C135.322 31.9584 135.295 31.8916 135.263 31.8916C135.23 31.8916 135.204 31.8365 135.204 31.769C135.204 31.6379 135.075 31.477 134.971 31.477C134.936 31.477 134.908 31.4105 134.908 31.3292C134.908 31.2478 134.881 31.181 134.848 31.181C134.816 31.181 134.789 31.1145 134.789 31.0328C134.789 30.9408 134.755 30.885 134.7 30.885C134.651 30.885 134.611 30.8324 134.611 30.7663C134.611 30.7013 134.585 30.648 134.552 30.648C134.52 30.648 134.493 30.6082 134.493 30.5592C134.493 30.5102 134.466 30.4704 134.434 30.4704C134.401 30.4704 134.375 30.4039 134.375 30.3222C134.375 30.2302 134.341 30.1744 134.286 30.1744C134.236 30.1744 134.197 30.1218 134.197 30.0557C134.197 29.9907 134.17 29.9374 134.138 29.9374C134.105 29.9374 134.078 29.871 134.078 29.7892C134.078 29.6972 134.045 29.6414 133.989 29.6414C133.937 29.6414 133.901 29.5867 133.901 29.5064C133.901 29.4321 133.847 29.333 133.782 29.2861C133.717 29.2392 133.664 29.1397 133.664 29.0658C133.664 28.9852 133.628 28.9308 133.575 28.9308C133.526 28.9308 133.486 28.8907 133.486 28.842C133.486 28.7929 133.46 28.7531 133.427 28.7531C133.394 28.7531 133.368 28.6998 133.368 28.6345C133.368 28.5687 133.328 28.5162 133.279 28.5162C133.224 28.5162 133.19 28.4604 133.19 28.368C133.19 28.2866 133.163 28.2202 133.131 28.2202C133.098 28.2202 133.071 28.1733 133.07 28.1164C133.067 27.9885 132.934 27.8055 132.843 27.8055C132.806 27.8055 132.776 27.7391 132.776 27.6574C132.776 27.576 132.749 27.5096 132.716 27.5096C132.684 27.5096 132.657 27.4428 132.657 27.3614C132.657 27.28 132.629 27.2132 132.594 27.2132C132.489 27.2132 132.361 27.0526 132.361 26.9215C132.361 26.854 132.334 26.7989 132.302 26.7989C132.269 26.7989 132.243 26.7321 132.243 26.6508C132.243 26.5587 132.209 26.5026 132.154 26.5026C132.103 26.5026 132.065 26.4497 132.065 26.38C132.065 26.2489 131.937 26.0883 131.832 26.0883C131.798 26.0883 131.769 26.0215 131.769 25.9401C131.769 25.8588 131.742 25.792 131.71 25.792C131.677 25.792 131.65 25.7255 131.65 25.6442C131.65 25.5628 131.624 25.496 131.591 25.496C131.559 25.496 131.532 25.4466 131.532 25.3859C131.532 25.3255 131.465 25.2256 131.384 25.1645C131.303 25.1034 131.236 24.9932 131.236 24.9193C131.236 24.8458 131.207 24.7854 131.173 24.7854C131.077 24.7854 130.94 24.6287 130.94 24.5189C130.94 24.4091 130.803 24.2524 130.707 24.2524C130.672 24.2524 130.644 24.224 130.644 24.1888C130.644 24.1071 130.493 23.9564 130.411 23.9564C130.376 23.9564 130.348 23.9284 130.348 23.8943C130.348 23.7866 130.062 23.5418 129.936 23.5418C129.867 23.5418 129.815 23.5031 129.815 23.453C129.815 23.4039 129.775 23.3641 129.726 23.3641C129.677 23.3641 129.637 23.3375 129.637 23.3048C129.637 23.2725 129.584 23.2458 129.519 23.2458C129.453 23.2458 129.4 23.2064 129.4 23.157C129.4 23.1016 129.344 23.0682 129.252 23.0682C129.171 23.0682 129.104 23.0415 129.104 23.0088C129.104 22.9761 129.011 22.9495 128.897 22.9495C128.783 22.9495 128.69 22.9228 128.69 22.8905C128.69 22.8529 128.265 22.8312 127.535 22.8312C126.804 22.8312 126.38 22.8529 126.38 22.8905Z" fill="#F34C54"/>
<path fill-rule="evenodd" clip-rule="evenodd" d="M126.557 0.564841C126.557 0.601083 126.281 0.624178 125.847 0.624178C125.255 0.624178 125.136 0.639101 125.136 0.713006C125.136 0.784068 125.047 0.801834 124.692 0.801834C124.435 0.801834 124.248 0.826705 124.248 0.86117C124.248 0.893859 124.09 0.920152 123.893 0.920152C123.695 0.920152 123.537 0.946445 123.537 0.979489C123.537 1.01218 123.444 1.03883 123.33 1.03883C123.185 1.03883 123.123 1.06547 123.123 1.12765C123.123 1.19339 123.054 1.21648 122.856 1.21648C122.71 1.21648 122.59 1.24313 122.59 1.27546C122.59 1.30815 122.5 1.3348 122.389 1.3348C122.265 1.3348 122.175 1.36891 122.154 1.42363C122.135 1.47231 122.066 1.51246 122 1.51246C121.933 1.51246 121.879 1.5391 121.879 1.57179C121.879 1.60413 121.773 1.63077 121.642 1.63077C121.512 1.63077 121.406 1.65742 121.406 1.69011C121.406 1.7228 121.352 1.74945 121.287 1.74945C121.221 1.74945 121.169 1.78889 121.169 1.83828C121.169 1.89335 121.113 1.9271 121.021 1.9271C120.939 1.9271 120.873 1.95375 120.873 1.98609C120.873 2.01877 120.806 2.04542 120.725 2.04542C120.633 2.04542 120.576 2.07882 120.576 2.13425C120.576 2.19643 120.514 2.22308 120.369 2.22308C120.255 2.22308 120.162 2.24973 120.162 2.28241C120.162 2.31475 120.122 2.3414 120.073 2.3414C120.024 2.3414 119.985 2.36804 119.985 2.40073C119.985 2.43342 119.931 2.46007 119.866 2.46007C119.8 2.46007 119.748 2.49951 119.748 2.5489C119.748 2.60397 119.692 2.63773 119.599 2.63773C119.518 2.63773 119.452 2.66437 119.452 2.69671C119.452 2.7294 119.411 2.75604 119.363 2.75604C119.314 2.75604 119.274 2.79584 119.274 2.84487C119.274 2.89426 119.221 2.9337 119.155 2.9337C119.09 2.9337 119.037 2.96035 119.037 2.99304C119.037 3.02537 118.997 3.05202 118.948 3.05202C118.899 3.05202 118.859 3.07867 118.859 3.11136C118.859 3.14404 118.793 3.17069 118.711 3.17069C118.63 3.17069 118.563 3.19912 118.563 3.23394C118.563 3.3384 118.402 3.46667 118.271 3.46667C118.204 3.46667 118.149 3.49509 118.149 3.53027C118.149 3.61199 117.998 3.76264 117.916 3.76264C117.881 3.76264 117.853 3.78929 117.853 3.82198C117.853 3.85467 117.799 3.88131 117.734 3.88131C117.668 3.88131 117.616 3.92075 117.616 3.97014C117.616 4.01882 117.587 4.05897 117.552 4.05897C117.47 4.05897 117.32 4.20962 117.32 4.29134C117.32 4.32652 117.292 4.35494 117.258 4.35494C117.177 4.35494 116.905 4.62711 116.905 4.70741C116.905 4.74152 116.877 4.76959 116.842 4.76959C116.76 4.76959 116.609 4.92024 116.609 5.00196C116.609 5.03714 116.581 5.06557 116.547 5.06557C116.467 5.06557 116.195 5.33773 116.195 5.41803C116.195 5.45214 116.166 5.48021 116.131 5.48021C116.049 5.48021 115.899 5.63087 115.899 5.71259C115.899 5.74776 115.87 5.77619 115.835 5.77619C115.739 5.77619 115.602 5.93288 115.602 6.04267C115.602 6.15246 115.466 6.30915 115.37 6.30915C115.335 6.30915 115.306 6.33758 115.306 6.37276C115.306 6.45448 115.156 6.60513 115.074 6.60513C115.039 6.60513 115.01 6.66589 115.01 6.74015C115.01 6.81441 114.957 6.91354 114.892 6.96044C114.827 7.00734 114.773 7.10683 114.773 7.18073C114.773 7.25499 114.745 7.31575 114.71 7.31575C114.605 7.31575 114.477 7.47671 114.477 7.60782C114.477 7.67746 114.439 7.7304 114.389 7.7304C114.34 7.7304 114.3 7.77055 114.3 7.81923C114.3 7.8679 114.273 7.90805 114.24 7.90805C114.208 7.90805 114.181 7.96135 114.181 8.02637C114.181 8.09175 114.155 8.14505 114.122 8.14505C114.089 8.14505 114.063 8.21149 114.063 8.29286C114.063 8.38524 114.029 8.44102 113.974 8.44102C113.919 8.44102 113.885 8.4968 113.885 8.58918C113.885 8.67055 113.859 8.73699 113.826 8.73699C113.794 8.73699 113.767 8.80379 113.767 8.88516C113.767 8.97718 113.733 9.03332 113.678 9.03332C113.623 9.03332 113.589 9.08911 113.589 9.18113C113.589 9.26285 113.563 9.3293 113.53 9.3293C113.497 9.3293 113.471 9.38259 113.471 9.44762C113.471 9.51299 113.444 9.56629 113.412 9.56629C113.379 9.56629 113.352 9.63273 113.352 9.7141C113.352 9.80648 113.319 9.86226 113.263 9.86226C113.201 9.86226 113.175 9.9248 113.175 10.0694C113.175 10.1835 113.148 10.2769 113.115 10.2769C113.083 10.2769 113.056 10.3835 113.056 10.5135C113.056 10.6848 113.031 10.7505 112.967 10.7505C112.905 10.7505 112.879 10.8131 112.879 10.9577C112.879 11.0717 112.852 11.1652 112.819 11.1652C112.787 11.1652 112.76 11.2849 112.76 11.4317C112.76 11.5781 112.733 11.6982 112.701 11.6982C112.668 11.6982 112.642 11.8314 112.642 11.9941C112.642 12.218 112.62 12.2901 112.553 12.2901C112.484 12.2901 112.464 12.3693 112.464 12.6454C112.464 12.843 112.438 13.0007 112.405 13.0007C112.371 13.0007 112.346 13.177 112.346 13.4104C112.346 13.6854 112.321 13.8282 112.271 13.8446C112.218 13.8624 112.192 14.1214 112.179 14.7972C112.168 15.3156 112.135 15.7249 112.104 15.7249C112.074 15.7249 112.049 16.0258 112.049 16.406C112.049 16.8203 112.073 17.0868 112.109 17.0868C112.148 17.0868 112.168 20.157 112.168 26.1789C112.168 34.206 112.178 35.2748 112.257 35.3047C112.317 35.3281 112.346 35.4223 112.346 35.5989C112.346 35.7421 112.372 35.8593 112.405 35.8593C112.437 35.8593 112.464 35.9257 112.464 36.0071C112.464 36.0995 112.497 36.1553 112.553 36.1553C112.608 36.1553 112.642 36.2111 112.642 36.3034C112.642 36.3848 112.668 36.4513 112.701 36.4513C112.733 36.4513 112.76 36.5067 112.76 36.5742C112.76 36.69 112.885 36.8659 112.967 36.8659C113.029 36.8659 113.175 37.0297 113.175 37.0986C113.175 37.1334 113.203 37.1619 113.238 37.1619C113.307 37.1619 113.471 37.3079 113.471 37.3694C113.471 37.4308 113.634 37.5765 113.703 37.5765C113.738 37.5765 113.767 37.6032 113.767 37.6359C113.767 37.6682 113.833 37.6948 113.915 37.6948C114.007 37.6948 114.063 37.7286 114.063 37.7837C114.063 37.8331 114.115 37.8725 114.181 37.8725C114.247 37.8725 114.3 37.8991 114.3 37.9318C114.3 37.9645 114.366 37.9912 114.448 37.9912C114.54 37.9912 114.596 38.0246 114.596 38.08C114.596 38.1351 114.652 38.1688 114.744 38.1688C114.825 38.1688 114.892 38.1955 114.892 38.2278C114.892 38.2609 115.05 38.2871 115.247 38.2871C115.445 38.2871 115.602 38.3134 115.602 38.3465C115.602 38.3817 115.829 38.4055 116.165 38.4055C116.501 38.4055 116.728 38.3817 116.728 38.3465C116.728 38.3134 116.885 38.2871 117.083 38.2871C117.28 38.2871 117.438 38.2609 117.438 38.2278C117.438 38.1955 117.531 38.1688 117.645 38.1688C117.79 38.1688 117.853 38.1418 117.853 38.08C117.853 38.0246 117.909 37.9912 118.001 37.9912C118.082 37.9912 118.149 37.9645 118.149 37.9318C118.149 37.8991 118.216 37.8725 118.297 37.8725C118.378 37.8725 118.445 37.8441 118.445 37.8092C118.445 37.7133 118.601 37.5765 118.711 37.5765C118.821 37.5765 118.978 37.4397 118.978 37.3438C118.978 37.309 119.006 37.2805 119.041 37.2805C119.123 37.2805 119.274 37.1299 119.274 37.0478C119.274 37.013 119.302 36.9842 119.337 36.9842C119.442 36.9842 119.57 36.8236 119.57 36.6925C119.57 36.625 119.597 36.5699 119.629 36.5699C119.662 36.5699 119.688 36.5031 119.688 36.4218C119.688 36.3404 119.717 36.2736 119.752 36.2736C119.872 36.2736 119.985 36.1041 119.985 35.9226C119.985 35.8003 120.014 35.7406 120.073 35.7406C120.135 35.7406 120.162 35.6781 120.162 35.5335C120.162 35.4194 120.189 35.3263 120.221 35.3263C120.261 35.3263 120.28 31.8716 120.28 25.0813C120.28 18.291 120.3 14.8366 120.34 14.8366C120.372 14.8366 120.399 14.6789 120.399 14.4813C120.399 14.2049 120.419 14.126 120.488 14.126C120.555 14.126 120.576 14.0535 120.576 13.83C120.576 13.6669 120.603 13.5337 120.636 13.5337C120.668 13.5337 120.695 13.4406 120.695 13.3265C120.695 13.1819 120.722 13.1194 120.784 13.1194C120.839 13.1194 120.873 13.0633 120.873 12.9712C120.873 12.8899 120.899 12.8231 120.932 12.8231C120.964 12.8231 120.991 12.7698 120.991 12.7048C120.991 12.6397 121.018 12.5864 121.05 12.5864C121.083 12.5864 121.109 12.5196 121.109 12.4383C121.109 12.3462 121.143 12.2901 121.198 12.2901C121.251 12.2901 121.287 12.2357 121.287 12.1562C121.287 12.0826 121.354 11.9725 121.435 11.911C121.517 11.8499 121.583 11.7504 121.583 11.6896C121.583 11.6292 121.61 11.5795 121.642 11.5795C121.675 11.5795 121.702 11.5397 121.702 11.4907C121.702 11.442 121.728 11.4018 121.761 11.4018C121.793 11.4018 121.82 11.3485 121.82 11.2835C121.82 11.2178 121.859 11.1652 121.909 11.1652C121.958 11.1652 121.998 11.1364 121.998 11.1016C121.998 11.0195 122.148 10.8689 122.23 10.8689C122.265 10.8689 122.294 10.8411 122.294 10.807C122.294 10.7267 122.566 10.4546 122.646 10.4546C122.68 10.4546 122.708 10.4144 122.708 10.3657C122.708 10.3153 122.761 10.2769 122.831 10.2769C122.947 10.2769 123.123 10.1518 123.123 10.0694C123.123 10.0079 123.287 9.86226 123.356 9.86226C123.39 9.86226 123.419 9.83562 123.419 9.80293C123.419 9.77059 123.473 9.74395 123.539 9.74395C123.605 9.74395 123.675 9.7038 123.693 9.65512C123.712 9.60608 123.778 9.56629 123.84 9.56629C123.901 9.56629 123.952 9.53964 123.952 9.50695C123.952 9.47426 124.019 9.44762 124.1 9.44762C124.192 9.44762 124.248 9.41422 124.248 9.35879C124.248 9.30372 124.304 9.26996 124.396 9.26996C124.478 9.26996 124.544 9.24331 124.544 9.21098C124.544 9.17829 124.611 9.15164 124.692 9.15164C124.774 9.15164 124.84 9.12499 124.84 9.09231C124.84 9.05997 124.933 9.03332 125.047 9.03332C125.192 9.03332 125.255 9.00632 125.255 8.9445C125.255 8.87734 125.327 8.85567 125.551 8.85567C125.714 8.85567 125.847 8.82902 125.847 8.79633C125.847 8.76187 126.044 8.73699 126.32 8.73699C126.702 8.73699 126.794 8.71994 126.794 8.64817C126.794 8.51812 127.772 8.51812 127.822 8.64817C127.849 8.7171 127.964 8.73699 128.332 8.73699C128.61 8.73699 128.808 8.76187 128.808 8.79633C128.808 8.82902 128.941 8.85567 129.103 8.85567C129.327 8.85567 129.4 8.87734 129.4 8.9445C129.4 9.00632 129.462 9.03332 129.607 9.03332C129.721 9.03332 129.814 9.05997 129.814 9.09231C129.814 9.12499 129.881 9.15164 129.962 9.15164C130.044 9.15164 130.11 9.17829 130.11 9.21098C130.11 9.24331 130.177 9.26996 130.258 9.26996C130.351 9.26996 130.406 9.30372 130.406 9.35879C130.406 9.40818 130.459 9.44762 130.525 9.44762C130.59 9.44762 130.643 9.47426 130.643 9.50695C130.643 9.53964 130.71 9.56629 130.791 9.56629C130.883 9.56629 130.939 9.59969 130.939 9.65512C130.939 9.70806 130.994 9.74395 131.074 9.74395C131.149 9.74395 131.248 9.79724 131.295 9.86226C131.341 9.92729 131.414 9.98058 131.456 9.98058C131.497 9.98058 131.532 10.0094 131.532 10.0442C131.532 10.1486 131.692 10.2769 131.823 10.2769C131.891 10.2769 131.946 10.3053 131.946 10.3402C131.946 10.4091 132.092 10.5729 132.153 10.5729C132.215 10.5729 132.36 10.7367 132.36 10.8056C132.36 10.8404 132.389 10.8689 132.424 10.8689C132.506 10.8689 132.656 11.0195 132.656 11.1016C132.656 11.1364 132.683 11.1652 132.716 11.1652C132.748 11.1652 132.775 11.2185 132.775 11.2835C132.775 11.3492 132.814 11.4018 132.864 11.4018C132.913 11.4018 132.953 11.4306 132.953 11.4654C132.953 11.5475 133.103 11.6982 133.185 11.6982C133.22 11.6982 133.249 11.7646 133.249 11.846C133.249 11.9277 133.275 11.9941 133.308 11.9941C133.34 11.9941 133.367 12.0492 133.367 12.1167C133.367 12.2478 133.495 12.4088 133.6 12.4088C133.635 12.4088 133.663 12.4752 133.663 12.5566C133.663 12.6383 133.69 12.7048 133.722 12.7048C133.755 12.7048 133.782 12.7978 133.782 12.9119C133.782 13.0569 133.808 13.1194 133.87 13.1194C133.926 13.1194 133.959 13.1752 133.959 13.2672C133.959 13.3489 133.986 13.4154 134.019 13.4154C134.051 13.4154 134.078 13.5337 134.078 13.6783C134.078 13.8229 134.104 13.9579 134.137 13.9778C134.17 13.9981 134.196 14.1327 134.196 14.2777C134.196 14.4717 134.219 14.5406 134.285 14.5406C134.361 14.5406 134.374 14.6977 134.374 15.6002C134.374 16.4874 134.359 16.6654 134.285 16.6938C134.221 16.7183 134.196 16.8189 134.196 17.0555C134.196 17.2357 134.17 17.3831 134.137 17.3831C134.104 17.3831 134.078 17.4897 134.078 17.6198C134.078 17.7502 134.051 17.8568 134.019 17.8568C133.986 17.8568 133.959 17.9499 133.959 18.0639C133.959 18.2089 133.933 18.2714 133.87 18.2714C133.815 18.2714 133.782 18.3272 133.782 18.4192C133.782 18.5009 133.755 18.5674 133.722 18.5674C133.69 18.5674 133.663 18.6605 133.663 18.7745C133.663 18.8886 133.635 18.982 133.6 18.982C133.5 18.982 133.367 19.1405 133.367 19.2599C133.367 19.3196 133.301 19.4184 133.219 19.4795C133.138 19.5406 133.071 19.6404 133.071 19.7008C133.071 19.7616 133.044 19.811 133.012 19.811C132.979 19.811 132.953 19.8508 132.953 19.8998C132.953 19.9485 132.924 19.9886 132.889 19.9886C132.793 19.9886 132.656 20.1453 132.656 20.2551C132.656 20.3649 132.52 20.5216 132.424 20.5216C132.389 20.5216 132.36 20.55 132.36 20.5852C132.36 20.6541 132.215 20.8176 132.153 20.8176C132.104 20.8176 131.946 20.9757 131.946 21.0251C131.946 21.1075 131.77 21.2322 131.654 21.2322C131.584 21.2322 131.532 21.2706 131.532 21.321C131.532 21.3697 131.491 21.4099 131.443 21.4099C131.394 21.4099 131.354 21.4365 131.354 21.4692C131.354 21.5015 131.301 21.5282 131.235 21.5282C131.17 21.5282 131.117 21.5548 131.117 21.5875C131.117 21.6202 131.077 21.6469 131.028 21.6469C130.979 21.6469 130.939 21.6867 130.939 21.7357C130.939 21.7908 130.883 21.8245 130.791 21.8245C130.71 21.8245 130.643 21.8512 130.643 21.8835C130.643 21.9162 130.59 21.9428 130.525 21.9428C130.459 21.9428 130.406 21.9823 130.406 22.0317C130.406 22.0871 130.351 22.1205 130.258 22.1205C130.177 22.1205 130.11 22.1471 130.11 22.1798C130.11 22.2122 130.017 22.2388 129.903 22.2388C129.789 22.2388 129.696 22.2655 129.696 22.2981C129.696 22.3308 129.629 22.3575 129.548 22.3575C129.456 22.3575 129.4 22.3909 129.4 22.4463C129.4 22.5135 129.327 22.5351 129.103 22.5351H128.808V22.7423C128.808 22.9398 128.817 22.9494 129.015 22.9494C129.129 22.9494 129.222 22.9761 129.222 23.0088C129.222 23.0415 129.289 23.0681 129.37 23.0681C129.462 23.0681 129.518 23.1015 129.518 23.1569C129.518 23.2056 129.558 23.2458 129.607 23.2458C129.656 23.2458 129.696 23.2724 129.696 23.3047C129.696 23.3374 129.749 23.3641 129.814 23.3641C129.879 23.3641 129.933 23.3907 129.933 23.4234C129.933 23.4558 129.973 23.4824 130.022 23.4824C130.07 23.4824 130.11 23.5112 130.11 23.546C130.11 23.6281 130.261 23.7787 130.343 23.7787C130.378 23.7787 130.406 23.8064 130.406 23.8406C130.406 23.9209 130.678 24.193 130.759 24.193C130.793 24.193 130.821 24.2332 130.821 24.2819C130.821 24.3309 130.848 24.3707 130.88 24.3707C130.913 24.3707 130.939 24.4204 130.939 24.4808C130.939 24.5416 131.006 24.6411 131.087 24.7022C131.169 24.7633 131.235 24.8624 131.235 24.9221C131.235 25.0415 131.368 25.2 131.468 25.2C131.503 25.2 131.532 25.2664 131.532 25.3478C131.532 25.4295 131.558 25.4959 131.591 25.4959C131.623 25.4959 131.65 25.5627 131.65 25.6441C131.65 25.7361 131.683 25.7919 131.739 25.7919C131.792 25.7919 131.827 25.8466 131.827 25.9269C131.827 26.0012 131.881 26.1003 131.946 26.1472C132.011 26.1941 132.064 26.2936 132.064 26.3675C132.064 26.4482 132.1 26.5025 132.153 26.5025C132.203 26.5025 132.242 26.5558 132.242 26.6255C132.242 26.7566 132.37 26.9172 132.475 26.9172C132.51 26.9172 132.538 26.984 132.538 27.0654C132.538 27.1467 132.565 27.2132 132.597 27.2132C132.63 27.2132 132.656 27.28 132.656 27.3613C132.656 27.4427 132.683 27.5095 132.716 27.5095C132.748 27.5095 132.775 27.5628 132.775 27.6278C132.775 27.6928 132.808 27.7465 132.849 27.7468C132.925 27.7472 133.071 28.0069 133.071 28.143C133.071 28.1853 133.111 28.2201 133.16 28.2201C133.209 28.2201 133.249 28.2727 133.249 28.3384C133.249 28.4035 133.275 28.4568 133.308 28.4568C133.34 28.4568 133.367 28.5136 133.367 28.5832C133.367 28.6529 133.434 28.7716 133.515 28.8469C133.597 28.9226 133.663 29.0253 133.663 29.0757C133.663 29.1262 133.69 29.1674 133.722 29.1674C133.755 29.1674 133.782 29.2075 133.782 29.2562C133.782 29.3116 133.837 29.345 133.93 29.345C134.022 29.345 134.078 29.3116 134.078 29.2562C134.078 29.2011 134.134 29.1674 134.226 29.1674C134.307 29.1674 134.374 29.1407 134.374 29.1084C134.374 29.0757 134.427 29.0491 134.492 29.0491C134.557 29.0491 134.611 29.0224 134.611 28.9897C134.611 28.9574 134.677 28.9307 134.759 28.9307C134.851 28.9307 134.907 28.897 134.907 28.8419C134.907 28.7915 134.96 28.7531 135.029 28.7531C135.161 28.7531 135.321 28.6248 135.321 28.5204C135.321 28.4855 135.388 28.4568 135.469 28.4568C135.551 28.4568 135.617 28.4301 135.617 28.3978C135.617 28.3651 135.657 28.3384 135.706 28.3384C135.755 28.3384 135.795 28.3118 135.795 28.2791C135.795 28.2468 135.848 28.2201 135.913 28.2201C135.979 28.2201 136.032 28.1807 136.032 28.1313C136.032 28.0823 136.072 28.0425 136.121 28.0425C136.17 28.0425 136.209 28.0158 136.209 27.9831C136.209 27.9504 136.276 27.9238 136.357 27.9238C136.439 27.9238 136.506 27.8961 136.506 27.862C136.506 27.7817 136.778 27.5095 136.858 27.5095C136.892 27.5095 136.92 27.4693 136.92 27.4207C136.92 27.3702 136.973 27.3318 137.043 27.3318C137.159 27.3318 137.335 27.2068 137.335 27.1243C137.335 27.075 137.492 26.9172 137.542 26.9172C137.603 26.9172 137.749 26.7534 137.749 26.6845C137.749 26.6496 137.778 26.6212 137.812 26.6212C137.881 26.6212 138.045 26.4752 138.045 26.4137C138.045 26.3643 138.203 26.2066 138.252 26.2066C138.314 26.2066 138.46 26.0428 138.46 25.9738C138.46 25.939 138.488 25.9106 138.523 25.9106C138.592 25.9106 138.756 25.7646 138.756 25.7031C138.756 25.6416 138.92 25.4959 138.988 25.4959C139.023 25.4959 139.052 25.4409 139.052 25.3734C139.052 25.2423 139.18 25.0813 139.284 25.0813C139.319 25.0813 139.348 25.0472 139.348 25.0056C139.348 24.964 139.401 24.8916 139.466 24.8447C139.531 24.7978 139.585 24.6983 139.585 24.6244C139.585 24.5501 139.613 24.4894 139.648 24.4894C139.753 24.4894 139.881 24.3284 139.881 24.1973C139.881 24.1298 139.909 24.0747 139.944 24.0747C140.049 24.0747 140.177 23.9141 140.177 23.783C140.177 23.7155 140.204 23.6601 140.236 23.6601C140.269 23.6601 140.295 23.6203 140.295 23.5712C140.295 23.5226 140.335 23.4824 140.384 23.4824C140.433 23.4824 140.473 23.4298 140.473 23.3641C140.473 23.2991 140.499 23.2458 140.532 23.2458C140.565 23.2458 140.592 23.179 140.592 23.0976C140.592 23.0056 140.625 22.9494 140.68 22.9494C140.735 22.9494 140.769 22.8937 140.769 22.8016C140.769 22.7203 140.796 22.6535 140.828 22.6535C140.861 22.6535 140.887 22.587 140.887 22.5053C140.887 22.4239 140.914 22.3575 140.947 22.3575C140.979 22.3575 141.006 22.2907 141.006 22.2093C141.006 22.1173 141.04 22.0612 141.095 22.0612C141.144 22.0612 141.183 22.0086 141.183 21.9428C141.183 21.8778 141.21 21.8245 141.243 21.8245C141.275 21.8245 141.302 21.7179 141.302 21.5875C141.302 21.4166 141.327 21.3505 141.391 21.3505C141.44 21.3505 141.48 21.2979 141.48 21.2322C141.48 21.1672 141.506 21.1139 141.539 21.1139C141.571 21.1139 141.598 21.0073 141.598 20.8769C141.598 20.7465 141.625 20.6399 141.657 20.6399C141.69 20.6399 141.716 20.5468 141.716 20.4328C141.716 20.2882 141.743 20.2256 141.805 20.2256C141.867 20.2256 141.894 20.1631 141.894 20.0181C141.894 19.9041 141.921 19.811 141.953 19.811C141.986 19.811 142.013 19.6777 142.013 19.515C142.013 19.2912 142.034 19.2187 142.102 19.2187C142.17 19.2187 142.19 19.1398 142.19 18.8634C142.19 18.6662 142.217 18.508 142.249 18.508C142.283 18.508 142.309 18.3304 142.309 18.0938C142.309 17.8568 142.334 17.6791 142.368 17.6791C142.405 17.6791 142.427 17.3359 142.427 16.7674C142.427 16.012 142.442 15.8503 142.516 15.8219C142.568 15.802 142.605 15.7132 142.605 15.6084C142.605 15.4883 142.575 15.4289 142.516 15.4289C142.441 15.4289 142.427 15.2875 142.427 14.5108C142.427 13.9384 142.405 13.593 142.368 13.593C142.334 13.593 142.309 13.4054 142.309 13.1489C142.309 12.8924 142.284 12.7048 142.249 12.7048C142.217 12.7048 142.19 12.585 142.19 12.4383C142.19 12.2407 142.167 12.1718 142.102 12.1718C142.034 12.1718 142.013 12.0993 142.013 11.8758C142.013 11.7127 141.986 11.5795 141.953 11.5795C141.921 11.5795 141.894 11.4587 141.894 11.3112C141.894 11.1275 141.866 11.0323 141.805 11.0089C141.757 10.99 141.716 10.9243 141.716 10.8628C141.716 10.801 141.69 10.7505 141.657 10.7505C141.625 10.7505 141.598 10.6439 141.598 10.5135C141.598 10.3835 141.571 10.2769 141.539 10.2769C141.506 10.2769 141.48 10.1835 141.48 10.0694C141.48 9.9248 141.453 9.86226 141.391 9.86226C141.335 9.86226 141.302 9.80648 141.302 9.7141C141.302 9.63273 141.275 9.56629 141.243 9.56629C141.21 9.56629 141.183 9.51299 141.183 9.44762C141.183 9.38188 141.144 9.3293 141.095 9.3293C141.04 9.3293 141.006 9.27351 141.006 9.18113C141.006 9.09977 140.979 9.03332 140.947 9.03332C140.914 9.03332 140.887 8.96653 140.887 8.88516C140.887 8.80379 140.861 8.73699 140.828 8.73699C140.796 8.73699 140.769 8.67055 140.769 8.58918C140.769 8.4968 140.735 8.44102 140.68 8.44102C140.625 8.44102 140.592 8.38524 140.592 8.29286C140.592 8.21149 140.565 8.14505 140.532 8.14505C140.499 8.14505 140.473 8.09175 140.473 8.02637C140.473 7.96064 140.433 7.90805 140.384 7.90805C140.335 7.90805 140.295 7.8679 140.295 7.81923C140.295 7.77055 140.269 7.7304 140.236 7.7304C140.204 7.7304 140.177 7.67533 140.177 7.60782C140.177 7.47671 140.049 7.31575 139.944 7.31575C139.909 7.31575 139.881 7.26068 139.881 7.19317C139.881 7.06206 139.753 6.90146 139.648 6.90146C139.613 6.90146 139.585 6.86131 139.585 6.81263C139.585 6.7636 139.558 6.7238 139.526 6.7238C139.493 6.7238 139.466 6.67051 139.466 6.60513C139.466 6.54011 139.44 6.48681 139.407 6.48681C139.375 6.48681 139.348 6.44666 139.348 6.39798C139.348 6.3493 139.319 6.30915 139.284 6.30915C139.18 6.30915 139.052 6.14855 139.052 6.01744C139.052 5.94993 139.023 5.89451 138.988 5.89451C138.92 5.89451 138.756 5.74883 138.756 5.68736C138.756 5.62589 138.592 5.48021 138.523 5.48021C138.488 5.48021 138.46 5.45143 138.46 5.41661C138.46 5.34768 138.314 5.18388 138.252 5.18388C138.203 5.18388 138.045 5.02613 138.045 4.97674C138.045 4.91527 137.881 4.76959 137.812 4.76959C137.778 4.76959 137.749 4.74081 137.749 4.70599C137.749 4.63706 137.603 4.47326 137.542 4.47326C137.492 4.47326 137.335 4.3155 137.335 4.26612C137.335 4.20749 137.172 4.05897 137.108 4.05897C137.077 4.05897 137.036 4.01882 137.017 3.97014C136.998 3.92111 136.935 3.88131 136.876 3.88131C136.817 3.88131 136.73 3.82802 136.683 3.76264C136.636 3.69762 136.537 3.64432 136.463 3.64432C136.389 3.64432 136.328 3.6159 136.328 3.58072C136.328 3.499 136.177 3.34835 136.095 3.34835C136.06 3.34835 136.032 3.3082 136.032 3.25952C136.032 3.21013 135.979 3.17069 135.913 3.17069C135.848 3.17069 135.795 3.14404 135.795 3.11136C135.795 3.07867 135.755 3.05202 135.706 3.05202C135.657 3.05202 135.617 3.02537 135.617 2.99304C135.617 2.96035 135.551 2.9337 135.469 2.9337C135.377 2.9337 135.321 2.9003 135.321 2.84487C135.321 2.79548 135.269 2.75604 135.203 2.75604C135.138 2.75604 135.084 2.7294 135.084 2.69671C135.084 2.66437 135.044 2.63773 134.996 2.63773C134.947 2.63773 134.907 2.59758 134.907 2.5489C134.907 2.49347 134.851 2.46007 134.759 2.46007C134.677 2.46007 134.611 2.43342 134.611 2.40073C134.611 2.36804 134.557 2.3414 134.492 2.3414C134.427 2.3414 134.374 2.31475 134.374 2.28241C134.374 2.24973 134.307 2.22308 134.226 2.22308C134.134 2.22308 134.078 2.18968 134.078 2.13425C134.078 2.07882 134.022 2.04542 133.93 2.04542C133.848 2.04542 133.782 2.01877 133.782 1.98609C133.782 1.95375 133.715 1.9271 133.633 1.9271C133.541 1.9271 133.486 1.89335 133.486 1.83828C133.486 1.78285 133.43 1.74945 133.337 1.74945C133.256 1.74945 133.189 1.7228 133.189 1.69011C133.189 1.65742 133.096 1.63077 132.982 1.63077C132.868 1.63077 132.775 1.60413 132.775 1.57179C132.775 1.5391 132.682 1.51246 132.568 1.51246C132.423 1.51246 132.36 1.48581 132.36 1.42363C132.36 1.36145 132.298 1.3348 132.153 1.3348C132.039 1.3348 131.946 1.30815 131.946 1.27546C131.946 1.24313 131.853 1.21648 131.739 1.21648C131.594 1.21648 131.532 1.18948 131.532 1.12765C131.532 1.0605 131.459 1.03883 131.235 1.03883C131.073 1.03883 130.939 1.01218 130.939 0.979489C130.939 0.9468 130.806 0.920152 130.643 0.920152C130.48 0.920152 130.347 0.893504 130.347 0.86117C130.347 0.82635 130.15 0.801834 129.873 0.801834C129.492 0.801834 129.4 0.784423 129.4 0.713006C129.4 0.639456 129.288 0.624178 128.748 0.624178C128.353 0.624178 128.097 0.600728 128.097 0.564841C128.097 0.528599 127.801 0.505859 127.327 0.505859C126.853 0.505859 126.557 0.528599 126.557 0.564841ZM51.7089 12.083C51.6478 12.1565 51.4289 12.1718 50.4284 12.1718C49.6635 12.1718 49.2219 12.1935 49.2219 12.2311C49.2219 12.2656 49.0243 12.2901 48.7483 12.2901C48.4718 12.2901 48.2743 12.315 48.2743 12.3494C48.2743 12.3821 48.1705 12.4088 48.0437 12.4088C47.8938 12.4088 47.8014 12.4397 47.7794 12.4976C47.7595 12.5495 47.6707 12.5864 47.5658 12.5864C47.4671 12.5864 47.3861 12.6131 47.3861 12.6454C47.3861 12.6781 47.3228 12.7048 47.2454 12.7048C47.1679 12.7048 47.0713 12.7445 47.0308 12.7936C46.9903 12.8423 46.9206 12.8824 46.8755 12.8824C46.8307 12.8824 46.7941 12.9091 46.7941 12.9417C46.7941 12.9741 46.7408 13.0007 46.6755 13.0007C46.6105 13.0007 46.5572 13.0274 46.5572 13.0601C46.5572 13.0928 46.517 13.1194 46.4683 13.1194C46.4193 13.1194 46.3795 13.1468 46.3795 13.1805C46.3795 13.2139 46.333 13.259 46.2758 13.2807C46.1205 13.3393 45.8466 13.63 45.8466 13.7366C45.8466 13.7877 45.8068 13.83 45.7578 13.83C45.7087 13.83 45.6689 13.8698 45.6689 13.9188C45.6689 13.9675 45.6423 14.0077 45.6096 14.0077C45.5773 14.0077 45.5506 14.0741 45.5506 14.1555C45.5506 14.2479 45.5169 14.3037 45.4618 14.3037C45.4124 14.3037 45.373 14.3562 45.373 14.422C45.373 14.4873 45.3463 14.5406 45.3136 14.5406C45.2809 14.5406 45.2543 14.6071 45.2543 14.6885C45.2543 14.7702 45.2277 14.8366 45.1953 14.8366C45.1626 14.8366 45.136 14.9002 45.136 14.9784C45.136 15.0562 45.0962 15.1354 45.0472 15.1543C44.9864 15.1774 44.9583 15.2726 44.9583 15.4566C44.9583 15.6041 44.9317 15.7249 44.899 15.7249C44.8667 15.7249 44.839 15.878 44.8379 16.0653C44.8368 16.2703 44.8017 16.4515 44.7491 16.5208C44.6208 16.6906 44.6208 19.5559 44.7491 19.7257C44.8017 19.795 44.8368 19.9762 44.8379 20.1812C44.839 20.3685 44.8667 20.5216 44.899 20.5216C44.9317 20.5216 44.9583 20.6385 44.9583 20.7817C44.9583 20.9583 44.9868 21.0528 45.0472 21.0759C45.099 21.0958 45.136 21.1846 45.136 21.2894C45.136 21.3882 45.1626 21.4692 45.1953 21.4692C45.2277 21.4692 45.2543 21.5357 45.2543 21.617C45.2543 21.6987 45.2809 21.7652 45.3136 21.7652C45.3463 21.7652 45.373 21.8192 45.373 21.8856C45.373 21.9517 45.4128 22.021 45.4618 22.0398C45.5105 22.0587 45.5506 22.1109 45.5506 22.1564C45.5506 22.2019 45.5773 22.2388 45.6096 22.2388C45.6423 22.2388 45.6689 22.2822 45.6689 22.3351C45.6689 22.3877 45.8288 22.5867 46.0242 22.7764C46.2196 22.9665 46.3795 23.1498 46.3795 23.1839C46.3795 23.2177 46.4136 23.2458 46.4552 23.2458C46.4968 23.2458 46.5696 23.2991 46.6165 23.3641C46.6634 23.4291 46.7625 23.4824 46.8368 23.4824C46.911 23.4824 46.9718 23.5112 46.9718 23.546C46.9718 23.6419 47.1281 23.7787 47.2383 23.7787C47.2916 23.7787 47.3754 23.8185 47.4241 23.8676C47.4731 23.9162 47.563 23.9564 47.6237 23.9564C47.6845 23.9564 47.7509 23.983 47.7712 24.0154C47.7911 24.0481 47.8845 24.0747 47.9783 24.0747C48.0721 24.0747 48.1656 24.1014 48.1855 24.134C48.2057 24.1664 48.4175 24.193 48.6566 24.193C48.9877 24.193 49.0989 24.2143 49.1249 24.2819C49.1703 24.4005 49.6908 24.4019 49.8472 24.284C49.9211 24.2278 50.1044 24.1962 50.3616 24.1952C50.5876 24.1941 50.7613 24.1674 50.7613 24.134C50.7613 24.1014 50.853 24.0747 50.9653 24.0747C51.0772 24.0747 51.1856 24.0481 51.2055 24.0154C51.2257 23.983 51.2922 23.9564 51.3529 23.9564C51.4137 23.9564 51.5 23.923 51.5441 23.8821C51.6702 23.7666 51.8763 23.6601 51.9747 23.6601C52.0237 23.6601 52.0642 23.6316 52.0642 23.5968C52.0642 23.5051 52.2188 23.3641 52.3193 23.3641C52.417 23.3641 52.8931 22.9217 52.8931 22.8311C52.8931 22.7984 52.9283 22.7718 52.9709 22.7718C53.0139 22.7718 53.0853 22.6787 53.1301 22.5646C53.1749 22.4506 53.2367 22.3575 53.2679 22.3575C53.3497 22.3575 53.4815 22.1674 53.4836 22.0466C53.4847 21.9894 53.512 21.9428 53.5447 21.9428C53.577 21.9428 53.6037 21.8764 53.6037 21.7947C53.6037 21.7026 53.6374 21.6469 53.6925 21.6469C53.7547 21.6469 53.7813 21.5843 53.7813 21.4394C53.7813 21.3253 53.808 21.2322 53.8407 21.2322C53.8734 21.2322 53.9007 21.1455 53.9018 21.0396C53.9028 20.9338 53.9426 20.7955 53.9906 20.7323C54.1189 20.5628 54.1171 18.734 53.9888 18.6054C53.9398 18.5567 53.9 18.4214 53.9 18.3052C53.9 18.189 53.8734 18.0938 53.8407 18.0938C53.808 18.0938 53.7813 18.0127 53.7813 17.914C53.7813 17.8092 53.7444 17.7203 53.6925 17.7004C53.6438 17.6819 53.6037 17.6027 53.6037 17.5249C53.6037 17.4467 53.577 17.3831 53.5447 17.3831C53.512 17.3831 53.4854 17.3394 53.4854 17.2861C53.4854 17.2328 53.4189 17.1277 53.3372 17.052C53.2559 16.9767 53.1894 16.8892 53.1894 16.858C53.1894 16.8267 53.096 16.7048 52.9819 16.5876C52.8679 16.4703 52.7748 16.3524 52.7748 16.3261C52.7748 16.2994 52.7083 16.2422 52.6266 16.1985C52.5453 16.1552 52.4788 16.0891 52.4788 16.0518C52.4788 16.0145 52.3854 15.9473 52.2713 15.9026C52.1573 15.8578 52.0642 15.7995 52.0642 15.7732C52.0642 15.7466 52.0273 15.7249 51.9818 15.7249C51.9363 15.7249 51.8837 15.6847 51.8652 15.6361C51.8464 15.587 51.7903 15.5472 51.7405 15.5472C51.6904 15.5472 51.6496 15.5206 51.6496 15.4879C51.6496 15.4556 51.5945 15.4289 51.527 15.4289C51.4595 15.4289 51.3643 15.3888 51.3156 15.3401C51.2666 15.2911 51.1635 15.2513 51.0864 15.2513C51.0093 15.2513 50.9298 15.2246 50.9095 15.1919C50.8892 15.1592 50.7294 15.1326 50.5542 15.1326C50.379 15.1326 50.2192 15.1059 50.1989 15.0736C50.178 15.0395 49.8728 15.0143 49.4848 15.0143C49.0726 15.0143 48.8072 15.0374 48.8072 15.0736C48.8072 15.1059 48.6623 15.1326 48.4853 15.1326C48.308 15.1326 48.1464 15.1592 48.1265 15.1919C48.1062 15.2246 48.0249 15.2513 47.9453 15.2513C47.8561 15.2513 47.8007 15.2854 47.8007 15.3401C47.8007 15.3991 47.7414 15.4289 47.623 15.4289C47.5253 15.4289 47.4454 15.4556 47.4454 15.4879C47.4454 15.5206 47.4052 15.5472 47.3566 15.5472C47.3075 15.5472 47.2677 15.587 47.2677 15.6361C47.2677 15.6915 47.212 15.7249 47.1196 15.7249C47.0382 15.7249 46.9718 15.7487 46.9718 15.7778C46.9718 15.807 46.9316 15.8461 46.883 15.8649C46.8226 15.888 46.7941 15.8617 46.7941 15.7821C46.7941 15.7181 46.8339 15.6656 46.883 15.6656C46.9316 15.6656 46.9718 15.6332 46.9718 15.5934C46.9718 15.4822 47.2319 14.9574 47.2876 14.956C47.3146 14.9556 47.4273 14.8618 47.5381 14.7478C47.649 14.6337 47.7797 14.5406 47.8291 14.5406C47.8789 14.5406 47.919 14.514 47.919 14.4813C47.919 14.4486 47.9858 14.422 48.0672 14.422C48.1592 14.422 48.2153 14.3886 48.2153 14.3331C48.2153 14.2681 48.2828 14.2443 48.4697 14.2443C48.61 14.2443 48.7497 14.2194 48.7806 14.1892C48.8449 14.126 49.4834 14.0834 51.2897 14.0215C52.2198 13.9896 52.5645 13.9583 52.5826 13.9039C52.5996 13.8524 52.7592 13.83 53.1056 13.83H53.6037V12.9119V11.9941H52.6931C51.9562 11.9941 51.7686 12.0112 51.7089 12.083ZM0.783691 18.2416V24.0747H1.76075H2.7378V21.5875V19.1003H3.77028C4.39525 19.1003 4.81769 19.0769 4.83972 19.041C4.85997 19.0087 5.09944 18.982 5.37195 18.982C5.73363 18.982 5.89174 18.9579 5.9564 18.8932C6.00543 18.8442 6.1273 18.8044 6.22714 18.8044C6.32733 18.8044 6.40905 18.7777 6.40905 18.745C6.40905 18.7124 6.47584 18.6857 6.5572 18.6857C6.64922 18.6857 6.70501 18.6523 6.70501 18.5969C6.70501 18.5418 6.76114 18.508 6.85316 18.508C6.93453 18.508 7.00132 18.4814 7.00132 18.4491C7.00132 18.4164 7.02903 18.3897 7.06279 18.3897C7.1779 18.3897 7.63374 17.9459 7.68633 17.7829C7.7048 17.7257 7.75809 17.6791 7.80464 17.6791C7.85118 17.6791 7.88955 17.639 7.88955 17.5903C7.88955 17.5412 7.9162 17.5015 7.94853 17.5015C7.98122 17.5015 8.00787 17.4496 8.00787 17.3867C8.00787 17.3234 8.03451 17.2552 8.0672 17.235C8.09953 17.2147 8.12618 17.1227 8.12618 17.0307C8.12618 16.9362 8.16491 16.8477 8.215 16.8285C8.28926 16.8001 8.30382 16.6253 8.30382 15.7636C8.30382 14.9194 8.28784 14.7194 8.215 14.659C8.16633 14.6185 8.12618 14.5218 8.12618 14.4444C8.12618 14.3669 8.09953 14.3037 8.0672 14.3037C8.03451 14.3037 8.00787 14.2372 8.00787 14.1555C8.00787 14.0741 7.98122 14.0077 7.94853 14.0077C7.9162 14.0077 7.88955 13.9689 7.88955 13.9213C7.88955 13.8741 7.82276 13.7686 7.7414 13.6872C7.66003 13.6058 7.59324 13.5113 7.59324 13.4772C7.59324 13.4431 7.55984 13.4154 7.51863 13.4154C7.47741 13.4154 7.39392 13.3489 7.33281 13.2672C7.27134 13.1858 7.1779 13.1194 7.12425 13.1194C7.07096 13.1194 6.98888 13.0661 6.94199 13.0007C6.89509 12.9357 6.79596 12.8824 6.7217 12.8824C6.64105 12.8824 6.58669 12.8465 6.58669 12.7936C6.58669 12.7314 6.52416 12.7048 6.37956 12.7048C6.26551 12.7048 6.17207 12.6781 6.17207 12.6454C6.17207 12.6131 6.03705 12.5864 5.87184 12.5864C5.68389 12.5864 5.53822 12.553 5.4828 12.4976C5.40676 12.4216 5.05893 12.4088 3.08883 12.4088H0.783691V18.2416ZM5.43199 14.4813C5.45224 14.514 5.5336 14.5406 5.61319 14.5406C5.69278 14.5406 5.75779 14.5691 5.75779 14.6039C5.75779 14.6728 5.90346 14.8366 5.96493 14.8366C6.04736 14.8366 6.17207 15.0125 6.17207 15.1283C6.17207 15.1958 6.19871 15.2513 6.2314 15.2513C6.31703 15.2513 6.30495 16.0848 6.21648 16.2753C6.17597 16.363 6.12268 16.4348 6.09817 16.4352C6.07365 16.4352 6.05375 16.4888 6.05375 16.5538C6.05375 16.6199 6.01432 16.6725 5.96493 16.6725C5.9159 16.6725 5.87611 16.7123 5.87611 16.7613C5.87611 16.81 5.82423 16.8502 5.76135 16.8502C5.69811 16.8502 5.62989 16.8768 5.60964 16.9091C5.58939 16.9418 5.5233 16.9685 5.46219 16.9685C5.40144 16.9685 5.31155 17.0083 5.26287 17.0573C5.18968 17.1305 4.95981 17.1461 3.95575 17.1461H2.7378V15.7842V14.422H4.0666C4.88839 14.422 5.40925 14.4447 5.43199 14.4813ZM12.745 15.0736C12.745 15.1059 12.6 15.1326 12.4231 15.1326C12.2458 15.1326 12.0841 15.1592 12.0642 15.1919C12.044 15.2246 11.9658 15.2513 11.8902 15.2513C11.8148 15.2513 11.7196 15.2911 11.6791 15.3401C11.6386 15.3888 11.5423 15.4289 11.4649 15.4289C11.3874 15.4289 11.3238 15.4556 11.3238 15.4879C11.3238 15.5206 11.284 15.5472 11.235 15.5472C11.1863 15.5472 11.1462 15.587 11.1462 15.6361C11.1462 15.689 11.0918 15.7249 11.0112 15.7249C10.9373 15.7249 10.8378 15.7782 10.7909 15.8432C10.744 15.9086 10.6704 15.9619 10.6274 15.9619C10.5322 15.9619 9.84366 16.6594 9.84366 16.7557C9.84366 16.7933 9.79037 16.8622 9.725 16.9091C9.65998 16.956 9.60668 17.0555 9.60668 17.1294C9.60668 17.2037 9.57115 17.2645 9.52781 17.2645C9.45142 17.2645 9.39209 17.3629 9.20485 17.7974C9.15582 17.9115 9.09293 18.0511 9.06486 18.1076C9.03715 18.1641 9.01441 18.3158 9.01441 18.4448C9.01441 18.5734 8.98776 18.6953 8.95543 18.7155C8.92026 18.7372 8.8961 19.111 8.8961 19.6369C8.8961 20.1872 8.91848 20.5216 8.95543 20.5216C8.98776 20.5216 9.01441 20.6534 9.01441 20.814C9.01441 20.975 9.04106 21.1231 9.07374 21.1434C9.10643 21.1636 9.13308 21.2457 9.13308 21.3264C9.13308 21.407 9.17287 21.488 9.2219 21.5069C9.27058 21.5257 9.31073 21.5861 9.31073 21.6412C9.31073 21.7964 9.45036 22.0604 9.53278 22.0608C9.57329 22.0612 9.60668 22.128 9.60668 22.2093C9.60668 22.2907 9.63333 22.3575 9.66602 22.3575C9.69835 22.3575 9.725 22.3859 9.725 22.4207C9.725 22.5028 9.87564 22.6535 9.95771 22.6535C9.99253 22.6535 10.0213 22.6872 10.0213 22.7281C10.0213 22.84 10.5468 23.3641 10.6591 23.3641C10.6836 23.3641 10.7536 23.4309 10.8147 23.5122C10.8761 23.5936 10.9756 23.6601 11.036 23.6601C11.0968 23.6601 11.1462 23.6867 11.1462 23.7194C11.1462 23.7521 11.213 23.7787 11.2943 23.7787C11.3863 23.7787 11.4425 23.8121 11.4425 23.8676C11.4425 23.9226 11.4983 23.9564 11.5903 23.9564C11.672 23.9564 11.7384 23.983 11.7384 24.0154C11.7384 24.0481 11.8315 24.0747 11.9456 24.0747C12.0596 24.0747 12.1531 24.1014 12.1531 24.134C12.1531 24.1678 12.3282 24.193 12.5602 24.193C12.8498 24.193 12.9887 24.2186 13.0413 24.2819C13.0878 24.3383 13.2186 24.3707 13.3994 24.3707C13.5735 24.3707 13.7185 24.3362 13.7729 24.2819C13.835 24.2197 13.9871 24.193 14.2806 24.193C14.52 24.193 14.6991 24.1678 14.6991 24.134C14.6991 24.1014 14.7925 24.0747 14.9066 24.0747C15.0203 24.0747 15.1137 24.0481 15.1137 24.0154C15.1137 23.983 15.1677 23.9564 15.2342 23.9564C15.3003 23.9564 15.3695 23.9162 15.3884 23.8676C15.4072 23.8185 15.4861 23.7787 15.5642 23.7787C15.642 23.7787 15.706 23.7521 15.706 23.7194C15.706 23.6867 15.7593 23.6601 15.8243 23.6601C15.89 23.6601 15.9426 23.6206 15.9426 23.5712C15.9426 23.5226 15.9828 23.4824 16.0314 23.4824C16.0986 23.4824 16.1203 23.5549 16.1203 23.7787V24.0747H17.0973H18.0744V19.6614V15.2481L17.1122 15.2644L16.1501 15.2808L16.132 15.5604C16.1135 15.8464 15.9679 15.8734 15.8065 15.6211C15.7806 15.5806 15.7071 15.5472 15.6438 15.5472C15.5802 15.5472 15.5284 15.5206 15.5284 15.4879C15.5284 15.4556 15.4729 15.4289 15.4054 15.4289C15.3383 15.4289 15.2431 15.3888 15.194 15.3401C15.1453 15.2911 15.042 15.2513 14.9649 15.2513C14.8878 15.2513 14.8082 15.2246 14.7879 15.1919C14.768 15.1592 14.6064 15.1326 14.4291 15.1326C14.2521 15.1326 14.1072 15.1059 14.1072 15.0736C14.1072 15.0374 13.8407 15.0143 13.4261 15.0143C13.0115 15.0143 12.745 15.0374 12.745 15.0736ZM20.5614 15.0736C20.5614 15.1059 20.4566 15.1326 20.3284 15.1326C20.1997 15.1326 20.0782 15.1592 20.0583 15.1919C20.0381 15.2246 19.9557 15.2513 19.8754 15.2513C19.7947 15.2513 19.7134 15.2911 19.6949 15.3401C19.676 15.3888 19.5968 15.4289 19.519 15.4289C19.4408 15.4289 19.3772 15.4556 19.3772 15.4879C19.3772 15.5206 19.3364 15.5472 19.2866 15.5472C19.2365 15.5472 19.1804 15.587 19.1619 15.6361C19.1431 15.6847 19.0905 15.7249 19.0454 15.7249C18.9999 15.7249 18.9626 15.7515 18.9626 15.7842C18.9626 15.8166 18.9161 15.8443 18.8592 15.8453C18.731 15.8475 18.5483 15.9811 18.5483 16.072C18.5483 16.109 18.5082 16.1395 18.4595 16.1395C18.3071 16.1395 18.3497 16.4625 18.5185 16.5894C18.6002 16.6505 18.6667 16.734 18.6667 16.7752C18.6667 16.8164 18.7064 16.8502 18.7555 16.8502C18.8049 16.8502 18.8443 16.9028 18.8443 16.9685C18.8443 17.0335 18.871 17.0868 18.9036 17.0868C18.936 17.0868 18.9626 17.1156 18.9626 17.1504C18.9626 17.2325 19.1133 17.3831 19.1953 17.3831C19.2302 17.3831 19.2589 17.4183 19.2589 17.462C19.2589 17.6528 19.5588 17.7161 19.6977 17.5544C19.7695 17.4712 19.913 17.3654 20.0171 17.3195C20.1212 17.2733 20.2061 17.2023 20.2061 17.1614C20.2061 17.1206 20.2729 17.0868 20.3543 17.0868C20.4357 17.0868 20.5025 17.0602 20.5025 17.0278C20.5025 16.9951 20.5955 16.9685 20.7096 16.9685C20.8236 16.9685 20.9167 16.9418 20.9167 16.9091C20.9167 16.8768 21.0219 16.8502 21.1502 16.8502C21.2784 16.8502 21.3999 16.8768 21.4202 16.9091C21.4404 16.9418 21.5236 16.9685 21.6056 16.9685C21.7545 16.9685 21.9236 17.0882 21.9236 17.1938C21.9236 17.2247 21.9634 17.2833 22.0125 17.3238C22.1979 17.478 22.1293 18.0092 21.8938 18.2377C21.7797 18.3485 21.6866 18.4679 21.6866 18.5031C21.6866 18.5457 21.4468 18.5674 20.9761 18.5674H20.2655V19.4852V20.4033H20.9761C21.4102 20.4033 21.6866 20.426 21.6866 20.4623C21.6866 20.4949 21.7399 20.5216 21.805 20.5216C21.8703 20.5216 21.9236 20.5482 21.9236 20.5809C21.9236 20.6133 21.9634 20.6399 22.0125 20.6399C22.0611 20.6399 22.1013 20.6801 22.1013 20.7287C22.1013 20.7778 22.1279 20.8176 22.1603 20.8176C22.1929 20.8176 22.2196 20.868 22.2196 20.9298C22.2196 20.9913 22.2594 21.0574 22.3084 21.0759C22.3688 21.099 22.3972 21.1938 22.3972 21.3711C22.3972 21.531 22.3628 21.6607 22.3084 21.7058C22.2594 21.7464 22.2196 21.8096 22.2196 21.8465C22.2196 21.9393 21.9542 22.2388 21.8721 22.2388C21.8352 22.2388 21.805 22.2655 21.805 22.2981C21.805 22.3308 21.7151 22.3575 21.6049 22.3575C21.4951 22.3575 21.3719 22.3973 21.3314 22.4463C21.2909 22.495 21.1811 22.5351 21.0873 22.5351C20.9754 22.5351 20.9167 22.5046 20.9167 22.4463C20.9167 22.3845 20.8549 22.3575 20.7131 22.3575C20.6009 22.3575 20.4929 22.3308 20.4726 22.2981C20.4527 22.2655 20.3845 22.2388 20.3213 22.2388C20.258 22.2388 20.2061 22.2122 20.2061 22.1798C20.2061 22.1471 20.166 22.1205 20.1173 22.1205C20.0683 22.1205 19.896 21.9855 19.7343 21.8206C19.4103 21.4898 19.1328 21.4344 18.9981 21.6739C18.9043 21.8412 18.8027 21.9428 18.7303 21.9428C18.6951 21.9428 18.6667 21.973 18.6667 22.01C18.6667 22.0807 18.3721 22.3571 18.2964 22.3571C18.2723 22.3575 18.252 22.3973 18.252 22.4463C18.252 22.495 18.2254 22.5351 18.1931 22.5351C18.1604 22.5351 18.1337 22.6456 18.1337 22.781C18.1337 23.0496 18.505 23.4824 18.7356 23.4824C18.7953 23.4824 18.8443 23.5112 18.8443 23.546C18.8443 23.6483 19.0042 23.7787 19.13 23.7787C19.1939 23.7787 19.2614 23.8185 19.2802 23.8676C19.2991 23.9162 19.3684 23.9564 19.4344 23.9564C19.5009 23.9564 19.5549 23.983 19.5549 24.0154C19.5549 24.0481 19.648 24.0747 19.762 24.0747C19.8761 24.0747 19.9695 24.1014 19.9695 24.134C19.9695 24.1667 20.1251 24.193 20.3184 24.193C20.5739 24.193 20.6765 24.2168 20.7014 24.2819C20.7512 24.4112 21.7339 24.4112 21.7836 24.2819C21.8085 24.2168 21.9112 24.193 22.1667 24.193C22.3599 24.193 22.5155 24.1667 22.5155 24.134C22.5155 24.1014 22.5635 24.0747 22.6221 24.0747C22.7827 24.0747 23.0478 23.9365 23.0481 23.8526C23.0485 23.8118 23.1039 23.7787 23.1718 23.7787C23.3189 23.7787 23.7591 23.3257 23.7591 23.1743C23.7591 23.1157 23.7992 23.0681 23.8479 23.0681C23.8969 23.0681 23.9367 23.028 23.9367 22.9793C23.9367 22.9302 23.9634 22.8905 23.9961 22.8905C24.0287 22.8905 24.0554 22.8372 24.0554 22.7718C24.0554 22.7068 24.0817 22.6535 24.1137 22.6535C24.146 22.6535 24.1893 22.5462 24.2103 22.4154C24.2313 22.2843 24.2718 22.1628 24.2998 22.1454C24.3737 22.0999 24.3659 20.4033 24.292 20.4033C24.2597 20.4033 24.233 20.3098 24.233 20.1958C24.233 20.0512 24.206 19.9886 24.1442 19.9886C24.0888 19.9886 24.0554 19.9328 24.0554 19.8405C24.0554 19.7591 24.0287 19.6927 23.9961 19.6927C23.9634 19.6927 23.9367 19.6607 23.9367 19.6216C23.9367 19.5829 23.8681 19.4791 23.7843 19.3917C23.6255 19.2261 23.656 19.0371 23.8628 18.9049C23.9055 18.8776 23.9367 18.7351 23.9367 18.5681C23.9367 18.4086 23.9634 18.2618 23.9961 18.2416C24.0287 18.2217 24.0554 17.9669 24.0554 17.6756C24.0554 17.3622 24.0312 17.1461 23.9961 17.1461C23.9634 17.1461 23.9367 17.0129 23.9367 16.8502C23.9367 16.6263 23.915 16.5538 23.8479 16.5538C23.7928 16.5538 23.7591 16.4981 23.7591 16.406C23.7591 16.3247 23.7324 16.2579 23.7001 16.2579C23.6674 16.2579 23.6408 16.2166 23.6408 16.1662C23.6408 16.0443 23.1465 15.5472 23.0254 15.5472C22.9732 15.5472 22.9302 15.5206 22.9302 15.4879C22.9302 15.4556 22.8925 15.4289 22.8463 15.4289C22.8001 15.4289 22.7525 15.3994 22.7404 15.3632C22.7127 15.28 22.2995 15.1347 22.0864 15.1337C21.9968 15.1329 21.9236 15.1059 21.9236 15.0736C21.9236 15.0374 21.6572 15.0143 21.2425 15.0143C20.8279 15.0143 20.5614 15.0374 20.5614 15.0736ZM29.1183 15.0736C29.0981 15.1059 28.9499 15.1326 28.789 15.1326C28.628 15.1326 28.4965 15.1592 28.4965 15.1919C28.4965 15.2246 28.4031 15.2513 28.2891 15.2513C28.1445 15.2513 28.0819 15.2779 28.0819 15.3401C28.0819 15.3952 28.0261 15.4289 27.9338 15.4289C27.8524 15.4289 27.786 15.4556 27.786 15.4879C27.786 15.5206 27.7192 15.5472 27.6378 15.5472C27.5458 15.5472 27.4897 15.5806 27.4897 15.6361C27.4897 15.6915 27.4339 15.7249 27.3418 15.7249C27.2605 15.7249 27.1937 15.7515 27.1937 15.7842C27.1937 15.8166 27.167 15.8432 27.1344 15.8432C27.102 15.8432 27.0754 15.71 27.0754 15.5472V15.2513H26.1573H25.2396V21.1448V27.0387L26.1427 27.0224L27.0455 27.006L27.0612 25.2444C27.0711 24.1376 27.0988 23.4824 27.1354 23.4824C27.1674 23.4824 27.1937 23.5087 27.1937 23.5407C27.1937 23.5727 27.2605 23.6153 27.3418 23.6359C27.4232 23.6561 27.4897 23.6967 27.4897 23.7258C27.4897 23.7549 27.5451 23.7787 27.6126 23.7787C27.6797 23.7787 27.775 23.8185 27.824 23.8676C27.8727 23.9162 27.9625 23.9564 28.0233 23.9564C28.0844 23.9564 28.1505 23.983 28.1707 24.0154C28.191 24.0481 28.2841 24.0747 28.3779 24.0747C28.472 24.0747 28.5651 24.1014 28.5854 24.134C28.6053 24.1664 28.8035 24.193 29.0256 24.193C29.3123 24.193 29.4509 24.219 29.5031 24.2819C29.5496 24.338 29.6804 24.3707 29.8584 24.3707C30.0364 24.3707 30.1671 24.338 30.2137 24.2819C30.2659 24.219 30.4045 24.193 30.6912 24.193C30.9133 24.193 31.1115 24.1664 31.1314 24.134C31.1517 24.1014 31.2241 24.0747 31.2927 24.0747C31.4458 24.0747 31.8718 23.8921 31.8718 23.8263C31.8718 23.8001 31.9184 23.7777 31.9752 23.7766C32.1035 23.7745 32.2861 23.6409 32.2861 23.5499C32.2861 23.513 32.344 23.4824 32.4147 23.4824C32.49 23.4824 32.6496 23.3715 32.7988 23.2159C32.9391 23.0695 33.0813 22.9494 33.1143 22.9494C33.1473 22.9494 33.1743 22.916 33.1743 22.8748C33.1743 22.8336 33.2386 22.7519 33.3172 22.6929C33.3953 22.6339 33.492 22.5078 33.5314 22.4122C33.5708 22.317 33.6266 22.2388 33.6554 22.2388C33.6838 22.2388 33.7073 22.1724 33.7073 22.091C33.7073 21.9986 33.741 21.9428 33.7961 21.9428C33.8515 21.9428 33.8849 21.8871 33.8849 21.7947C33.8849 21.7133 33.9116 21.6469 33.9443 21.6469C33.9769 21.6469 34.0036 21.5829 34.0036 21.5051C34.0036 21.4269 34.0434 21.348 34.0924 21.3292C34.1436 21.3097 34.1812 21.2208 34.1812 21.1192C34.1812 21.0222 34.2079 20.9266 34.2402 20.9064C34.2729 20.8865 34.2996 20.6214 34.2996 20.3159C34.2996 19.9261 34.3216 19.7538 34.3735 19.7349C34.4328 19.7133 34.4328 19.6831 34.3735 19.5825C34.329 19.5072 34.2996 19.2443 34.2996 18.9234C34.2996 18.6072 34.2754 18.3897 34.2402 18.3897C34.2079 18.3897 34.1812 18.3091 34.1812 18.2103C34.1812 18.1051 34.1443 18.0167 34.0924 17.9968C34.0373 17.9754 34.0036 17.8855 34.0036 17.7615C34.0036 17.651 33.9769 17.5608 33.9443 17.5608C33.9116 17.5608 33.8849 17.527 33.8849 17.4862C33.8849 17.445 33.8185 17.3394 33.7371 17.2517C33.6558 17.1639 33.589 17.0488 33.589 16.9962C33.589 16.891 33.1576 16.4355 33.0585 16.4355C33.0244 16.4355 32.9967 16.4078 32.9967 16.374C32.9967 16.2724 32.5668 15.8716 32.3604 15.7807C32.2545 15.7341 32.1678 15.6624 32.1678 15.6215C32.1678 15.5806 32.1014 15.5472 32.0196 15.5472C31.9383 15.5472 31.8718 15.5206 31.8718 15.4879C31.8718 15.4556 31.805 15.4289 31.7237 15.4289C31.6317 15.4289 31.5755 15.3952 31.5755 15.3401C31.5755 15.2779 31.513 15.2513 31.3684 15.2513C31.2543 15.2513 31.1612 15.2246 31.1612 15.1919C31.1612 15.1589 31.0031 15.1326 30.806 15.1326C30.6084 15.1326 30.4507 15.1063 30.4507 15.0736C30.4507 15.0377 30.1952 15.0143 29.8026 15.0143C29.4345 15.0143 29.1389 15.0399 29.1183 15.0736ZM38.8889 15.0736C38.8686 15.1059 38.7087 15.1326 38.5336 15.1326C38.3581 15.1326 38.1982 15.1592 38.1783 15.1919C38.158 15.2246 38.0756 15.2513 37.9953 15.2513C37.9147 15.2513 37.8333 15.2911 37.8148 15.3401C37.796 15.3888 37.7235 15.4296 37.6539 15.4307C37.5064 15.4328 37.3195 15.5597 37.3195 15.6574C37.3195 15.6947 37.2531 15.7249 37.1714 15.7249C37.09 15.7249 37.0236 15.7515 37.0236 15.7842C37.0236 15.8166 36.9959 15.8432 36.9618 15.8432C36.9277 15.8432 36.868 15.8706 36.8285 15.9036C36.5194 16.1648 36.3954 16.2579 36.3574 16.2579C36.3329 16.2579 36.313 16.2916 36.313 16.3325C36.313 16.3737 36.2462 16.4575 36.1648 16.5187C36.0835 16.5798 36.0167 16.6679 36.0167 16.7144C36.0167 16.8139 35.8753 16.9685 35.7843 16.9685C35.7491 16.9685 35.7207 17.0353 35.7207 17.1166C35.7207 17.198 35.698 17.2645 35.6699 17.2645C35.5996 17.2645 35.3061 17.8422 35.3061 17.9808C35.3061 18.0429 35.2794 18.0938 35.2471 18.0938C35.2144 18.0938 35.1878 18.2234 35.1878 18.3826C35.1878 18.567 35.1558 18.6978 35.099 18.745C35.0275 18.8044 35.0101 18.9856 35.0101 19.6703C35.0101 20.3876 35.024 20.5216 35.099 20.5216C35.1672 20.5216 35.1878 20.5969 35.1878 20.8439C35.1878 21.0212 35.2144 21.1825 35.2471 21.2027C35.2794 21.2226 35.3061 21.3043 35.3061 21.3839C35.3061 21.4632 35.3327 21.5282 35.3654 21.5282C35.3981 21.5282 35.4248 21.5783 35.4248 21.6394C35.4248 21.7005 35.4646 21.784 35.5136 21.8245C35.5623 21.865 35.6024 21.9347 35.6024 21.9798C35.6024 22.0246 35.6291 22.0612 35.6614 22.0612C35.6941 22.0612 35.7207 22.128 35.7207 22.2093C35.7207 22.3013 35.7541 22.3575 35.8095 22.3575C35.8586 22.3575 35.8984 22.3848 35.8984 22.4186C35.8984 22.543 36.8324 23.4824 36.9557 23.4824C36.9859 23.4824 37.0261 23.5226 37.0449 23.5712C37.0637 23.6203 37.133 23.6601 37.1991 23.6601C37.2655 23.6601 37.3195 23.6867 37.3195 23.7194C37.3195 23.7521 37.37 23.7787 37.4318 23.7787C37.4933 23.7787 37.559 23.8185 37.5778 23.8676C37.5967 23.9162 37.666 23.9564 37.732 23.9564C37.7985 23.9564 37.8525 23.983 37.8525 24.0154C37.8525 24.0481 37.9441 24.0747 38.0561 24.0747C38.1683 24.0747 38.2763 24.1014 38.2966 24.134C38.3169 24.1664 38.5066 24.193 38.7187 24.193C38.9827 24.193 39.1326 24.2211 39.1934 24.2819C39.3078 24.3966 39.7483 24.3977 39.899 24.284C39.9729 24.2278 40.1562 24.1962 40.4134 24.1952C40.6394 24.1941 40.8131 24.1674 40.8131 24.134C40.8131 24.1014 40.9048 24.0747 41.0171 24.0747C41.129 24.0747 41.2374 24.0481 41.2573 24.0154C41.2775 23.983 41.3457 23.9564 41.409 23.9564C41.4722 23.9564 41.5237 23.9162 41.5237 23.8676C41.5237 23.8121 41.5799 23.7787 41.6719 23.7787C41.7532 23.7787 41.82 23.7521 41.82 23.7194C41.82 23.6867 41.8865 23.6601 41.9678 23.6601C42.0602 23.6601 42.116 23.6267 42.116 23.5712C42.116 23.5226 42.1558 23.4824 42.2048 23.4824C42.272 23.4824 42.2936 23.5549 42.2936 23.7787V24.0747H43.2707H44.2478V19.6628V15.2513H43.2707H42.2936V15.559C42.2936 15.7984 42.278 15.8514 42.2226 15.796C42.1835 15.7569 42.1036 15.7249 42.0449 15.7249C41.9863 15.7249 41.9384 15.6847 41.9384 15.6361C41.9384 15.5867 41.8858 15.5472 41.82 15.5472C41.7547 15.5472 41.7014 15.5206 41.7014 15.4879C41.7014 15.4556 41.6381 15.4289 41.5607 15.4289C41.4832 15.4289 41.3866 15.3888 41.3461 15.3401C41.3056 15.2911 41.2107 15.2513 41.135 15.2513C41.0597 15.2513 40.9815 15.2246 40.9613 15.1919C40.941 15.1592 40.7797 15.1326 40.6025 15.1326C40.4252 15.1326 40.2802 15.1059 40.2802 15.0736C40.2802 15.0374 40.0152 15.0143 39.603 15.0143C39.215 15.0143 38.9098 15.0395 38.8889 15.0736ZM58.489 15.0736C58.4691 15.1059 58.3092 15.1326 58.1337 15.1326C57.9585 15.1326 57.7986 15.1592 57.7784 15.1919C57.7585 15.2246 57.68 15.2513 57.6046 15.2513C57.529 15.2513 57.4341 15.2911 57.3936 15.3401C57.3531 15.3888 57.2565 15.4289 57.179 15.4289C57.1015 15.4289 57.0383 15.4556 57.0383 15.4879C57.0383 15.5206 56.9974 15.5472 56.9477 15.5472C56.8976 15.5472 56.8415 15.587 56.823 15.6361C56.8042 15.6847 56.7516 15.7249 56.7065 15.7249C56.661 15.7249 56.6237 15.7498 56.6237 15.78C56.6237 15.8105 56.57 15.8525 56.5043 15.8734C56.4386 15.894 56.2993 15.9892 56.1948 16.0845C56.0907 16.1797 55.9845 16.2579 55.9593 16.2579C55.9341 16.2579 55.9131 16.2916 55.9131 16.3325C55.9131 16.3737 55.8467 16.4575 55.7653 16.5187C55.6839 16.5798 55.6171 16.6594 55.6171 16.6956C55.6171 16.7315 55.5237 16.8662 55.41 16.9941C55.296 17.122 55.2025 17.262 55.2025 17.305C55.2025 17.348 55.1759 17.3831 55.1435 17.3831C55.1108 17.3831 55.0842 17.4467 55.0842 17.5249C55.0842 17.6027 55.044 17.6819 54.9954 17.7004C54.9435 17.7203 54.9065 17.8092 54.9065 17.914C54.9065 18.0127 54.8799 18.0938 54.8472 18.0938C54.8149 18.0938 54.7882 18.2242 54.7882 18.3833C54.7882 18.5862 54.7616 18.6832 54.6994 18.7074C54.6255 18.7354 54.6106 18.8982 54.6106 19.6628C54.6106 20.4274 54.6255 20.5902 54.6994 20.6186C54.7616 20.6424 54.7882 20.7394 54.7882 20.9423C54.7882 21.1018 54.8149 21.2322 54.8472 21.2322C54.8799 21.2322 54.9065 21.3129 54.9065 21.4116C54.9065 21.5168 54.9435 21.6053 54.9954 21.6252C55.044 21.644 55.0842 21.7233 55.0842 21.8011C55.0842 21.8792 55.1059 21.9428 55.1325 21.9428C55.1588 21.9428 55.2171 22.0359 55.2618 22.15C55.3066 22.264 55.378 22.3575 55.421 22.3575C55.4636 22.3575 55.4988 22.3973 55.4988 22.4463C55.4988 22.495 55.5255 22.5351 55.5578 22.5351C55.5905 22.5351 55.6171 22.576 55.6171 22.6257C55.6171 22.6755 55.6569 22.7316 55.706 22.7505C55.7546 22.7693 55.7948 22.8094 55.7948 22.8396C55.7948 22.9363 56.2314 23.3385 56.4315 23.4266C56.5373 23.4732 56.6244 23.5382 56.6255 23.5709C56.6262 23.6039 56.7928 23.707 56.9957 23.8C57.1982 23.8935 57.4103 23.9933 57.4668 24.0221C57.5233 24.0509 57.6498 24.0747 57.7482 24.0747C57.8462 24.0747 57.9265 24.1014 57.9265 24.134C57.9265 24.1674 58.1006 24.1941 58.3262 24.1952C58.5835 24.1962 58.7668 24.2278 58.8411 24.284C58.9892 24.3959 59.4692 24.3959 59.6177 24.284C59.6934 24.2264 59.8785 24.1962 60.162 24.1952C60.4076 24.1941 60.5912 24.1678 60.5912 24.134C60.5912 24.1014 60.6843 24.0747 60.7984 24.0747C60.9124 24.0747 61.0059 24.0481 61.0059 24.0154C61.0059 23.983 61.0599 23.9564 61.126 23.9564C61.192 23.9564 61.2617 23.9162 61.2805 23.8676C61.299 23.8185 61.3782 23.7787 61.456 23.7787C61.5342 23.7787 61.5978 23.7521 61.5978 23.7194C61.5978 23.6867 61.6386 23.6601 61.6887 23.6601C61.7385 23.6601 61.7946 23.6203 61.8134 23.5712C61.8319 23.5226 61.8788 23.4824 61.9168 23.4824C61.9549 23.4824 62.0248 23.4291 62.0717 23.3641C62.1186 23.2991 62.1911 23.2458 62.2327 23.2458C62.2743 23.2458 62.3084 23.217 62.3084 23.1822C62.3084 23.1001 62.459 22.9494 62.5411 22.9494C62.5759 22.9494 62.6047 22.9207 62.6047 22.8855C62.6047 22.8499 62.6978 22.7306 62.8118 22.6201C62.9259 22.5092 63.019 22.3781 63.019 22.3287C63.019 22.2793 63.0456 22.2388 63.0783 22.2388C63.111 22.2388 63.1376 22.199 63.1376 22.15C63.1376 22.1013 63.1582 22.0612 63.1831 22.0612C63.2083 22.0612 63.278 21.9613 63.338 21.8391C63.3977 21.7172 63.4705 21.5708 63.4993 21.5143C63.5284 21.4578 63.5519 21.3313 63.5519 21.2329C63.5519 21.1139 63.5814 21.0546 63.6407 21.0546C63.71 21.0546 63.7295 20.976 63.7295 20.7028C63.7295 20.5092 63.7562 20.3343 63.7889 20.3144C63.8219 20.2938 63.8482 20.0188 63.8482 19.6927C63.8482 19.3661 63.8219 19.0911 63.7889 19.0709C63.7562 19.0506 63.7295 18.8751 63.7295 18.6804C63.7295 18.4206 63.7061 18.3176 63.6407 18.2927C63.586 18.2718 63.5519 18.1815 63.5519 18.0579C63.5519 17.947 63.5252 17.8568 63.4929 17.8568C63.4602 17.8568 63.4336 17.7903 63.4336 17.7086C63.4336 17.6272 63.4069 17.5608 63.3742 17.5608C63.3419 17.5608 63.3153 17.5064 63.3153 17.4403C63.3153 17.3742 63.2797 17.3064 63.2364 17.2897C63.1931 17.2733 63.1216 17.1675 63.0772 17.0548C63.0332 16.9422 62.9621 16.8502 62.9191 16.8502C62.8765 16.8502 62.8413 16.8214 62.8413 16.7866C62.8413 16.6924 62.3016 16.1395 62.21 16.1395C62.1663 16.1395 62.1307 16.1108 62.1307 16.0759C62.1307 15.9939 61.9801 15.8432 61.8984 15.8432C61.8632 15.8432 61.8348 15.8166 61.8348 15.7842C61.8348 15.7515 61.7815 15.7249 61.7165 15.7249C61.6504 15.7249 61.5978 15.6855 61.5978 15.6361C61.5978 15.5806 61.542 15.5472 61.45 15.5472C61.3686 15.5472 61.3018 15.5206 61.3018 15.4879C61.3018 15.4556 61.2354 15.4289 61.1537 15.4289C61.0616 15.4289 61.0059 15.3952 61.0059 15.3401C61.0059 15.2779 60.9433 15.2513 60.7984 15.2513C60.6843 15.2513 60.5912 15.2246 60.5912 15.1919C60.5912 15.1589 60.4335 15.1326 60.2359 15.1326C60.0384 15.1326 59.8806 15.1063 59.8806 15.0736C59.8806 15.0374 59.6152 15.0143 59.2031 15.0143C58.8155 15.0143 58.5099 15.0395 58.489 15.0736ZM73.8554 15.0736C73.8554 15.1059 73.7104 15.1326 73.5335 15.1326C73.3562 15.1326 73.1945 15.1592 73.1747 15.1919C73.1544 15.2246 73.0762 15.2513 73.0006 15.2513C72.9252 15.2513 72.83 15.2911 72.7895 15.3401C72.749 15.3888 72.6527 15.4289 72.5753 15.4289C72.4978 15.4289 72.4342 15.4556 72.4342 15.4879C72.4342 15.5206 72.3944 15.5472 72.3454 15.5472C72.2967 15.5472 72.2566 15.587 72.2566 15.6361C72.2566 15.689 72.2022 15.7249 72.1216 15.7249C72.0477 15.7249 71.9482 15.7782 71.9013 15.8432C71.8544 15.9086 71.7808 15.9619 71.7378 15.9619C71.6426 15.9619 70.9541 16.6594 70.9541 16.7557C70.9541 16.7933 70.9008 16.8622 70.8354 16.9091C70.7704 16.956 70.7171 17.0555 70.7171 17.1294C70.7171 17.2037 70.6816 17.2645 70.6382 17.2645C70.5618 17.2645 70.5025 17.3629 70.3153 17.7974C70.2662 17.9115 70.2033 18.0511 70.1753 18.1076C70.1476 18.1641 70.1248 18.3158 70.1248 18.4448C70.1248 18.5734 70.0982 18.6953 70.0658 18.7155C70.0307 18.7372 70.0065 19.111 70.0065 19.6369C70.0065 20.1872 70.0289 20.5216 70.0658 20.5216C70.0982 20.5216 70.1248 20.6534 70.1248 20.814C70.1248 20.975 70.1515 21.1231 70.1842 21.1434C70.2168 21.1636 70.2435 21.2457 70.2435 21.3264C70.2435 21.407 70.2833 21.488 70.3323 21.5069C70.381 21.5257 70.4211 21.5861 70.4211 21.6412C70.4211 21.7964 70.5608 22.0604 70.6432 22.0608C70.6837 22.0612 70.7171 22.128 70.7171 22.2093C70.7171 22.2907 70.7437 22.3575 70.7764 22.3575C70.8088 22.3575 70.8354 22.3859 70.8354 22.4207C70.8354 22.5028 70.986 22.6535 71.0681 22.6535C71.1029 22.6535 71.1317 22.6872 71.1317 22.7281C71.1317 22.84 71.6572 23.3641 71.7695 23.3641C71.794 23.3641 71.864 23.4309 71.9251 23.5122C71.9865 23.5936 72.086 23.6601 72.1464 23.6601C72.2072 23.6601 72.2566 23.6867 72.2566 23.7194C72.2566 23.7521 72.3234 23.7787 72.4047 23.7787C72.4967 23.7787 72.5529 23.8121 72.5529 23.8676C72.5529 23.9226 72.6087 23.9564 72.7007 23.9564C72.7824 23.9564 72.8488 23.983 72.8488 24.0154C72.8488 24.0481 72.9419 24.0747 73.056 24.0747C73.17 24.0747 73.2635 24.1014 73.2635 24.134C73.2635 24.1678 73.4386 24.193 73.6706 24.193C73.9602 24.193 74.0991 24.2186 74.1517 24.2819C74.1982 24.3383 74.329 24.3707 74.5098 24.3707C74.6839 24.3707 74.8289 24.3362 74.8833 24.2819C74.9454 24.2197 75.0975 24.193 75.391 24.193C75.6304 24.193 75.8095 24.1678 75.8095 24.134C75.8095 24.1014 75.9029 24.0747 76.017 24.0747C76.1307 24.0747 76.2241 24.0481 76.2241 24.0154C76.2241 23.983 76.2781 23.9564 76.3446 23.9564C76.4107 23.9564 76.4799 23.9162 76.4988 23.8676C76.5176 23.8185 76.5965 23.7787 76.6746 23.7787C76.7525 23.7787 76.8164 23.7521 76.8164 23.7194C76.8164 23.6867 76.8697 23.6601 76.9347 23.6601C77.0005 23.6601 77.053 23.6206 77.053 23.5712C77.053 23.5226 77.0932 23.4824 77.1419 23.4824C77.209 23.4824 77.2307 23.5549 77.2307 23.7787V24.0747H78.2077H79.1848V19.6614V15.2481L78.2227 15.2644L77.2605 15.2808L77.2424 15.5604C77.2239 15.8464 77.0783 15.8734 76.917 15.6211C76.891 15.5806 76.8175 15.5472 76.7542 15.5472C76.6906 15.5472 76.6388 15.5206 76.6388 15.4879C76.6388 15.4556 76.5833 15.4289 76.5158 15.4289C76.4487 15.4289 76.3535 15.3888 76.3044 15.3401C76.2558 15.2911 76.1524 15.2513 76.0753 15.2513C75.9982 15.2513 75.9186 15.2246 75.8983 15.1919C75.8784 15.1592 75.7168 15.1326 75.5395 15.1326C75.3625 15.1326 75.2176 15.1059 75.2176 15.0736C75.2176 15.0374 74.9511 15.0143 74.5365 15.0143C74.1219 15.0143 73.8554 15.0374 73.8554 15.0736ZM92.3306 15.0736C92.3306 15.1063 92.1729 15.1326 91.9753 15.1326C91.7782 15.1326 91.62 15.1589 91.62 15.1919C91.62 15.2246 91.5586 15.2513 91.4836 15.2513C91.4083 15.2513 91.295 15.2903 91.2317 15.338C91.1685 15.3859 91.0701 15.4257 91.0132 15.4268C90.9564 15.4279 90.9095 15.4556 90.9095 15.4879C90.9095 15.5206 90.8555 15.5472 90.7894 15.5472C90.7233 15.5472 90.6536 15.587 90.6348 15.6361C90.6163 15.6847 90.5638 15.7249 90.5183 15.7249C90.4728 15.7249 90.4359 15.7483 90.4359 15.7768C90.4359 15.8056 90.3577 15.8613 90.2625 15.9008C90.1669 15.9402 90.0408 16.0369 89.9818 16.1154C89.9232 16.1936 89.8411 16.2579 89.7999 16.2579C89.759 16.2579 89.7253 16.2881 89.7253 16.325C89.7253 16.362 89.6766 16.4352 89.6173 16.4877C89.5583 16.5403 89.4592 16.67 89.3973 16.7759C89.3359 16.8818 89.2645 16.9685 89.2389 16.9685C89.2133 16.9685 89.1923 17.0083 89.1923 17.0573C89.1923 17.106 89.1675 17.1461 89.1376 17.1461C89.0744 17.1461 88.8964 17.4805 88.8964 17.5995C88.8964 17.6432 88.8708 17.6791 88.8399 17.6791C88.8086 17.6791 88.7656 17.7726 88.7443 17.887C88.7226 18.0014 88.6814 18.1094 88.6526 18.1275C88.6239 18.1453 88.6001 18.2782 88.6001 18.4228C88.6001 18.5674 88.5734 18.6857 88.5411 18.6857C88.5038 18.6857 88.4817 19.051 88.4817 19.6628C88.4817 20.275 88.5038 20.6399 88.5411 20.6399C88.5734 20.6399 88.6001 20.7732 88.6001 20.9362C88.6001 21.099 88.6267 21.2322 88.6594 21.2322C88.6921 21.2322 88.7187 21.2969 88.7187 21.3761C88.7187 21.455 88.7585 21.5598 88.8075 21.6088C88.8562 21.6575 88.8964 21.7407 88.8964 21.7929C88.8964 21.8824 88.9333 21.9414 89.1184 22.1479C89.1589 22.1933 89.1923 22.2591 89.1923 22.2939C89.1923 22.3287 89.219 22.3575 89.2517 22.3575C89.284 22.3575 89.3106 22.3852 89.3106 22.419C89.3106 22.4772 89.3572 22.544 89.5327 22.7402C89.5736 22.7856 89.607 22.8396 89.607 22.8606C89.607 22.9178 89.7683 23.0681 89.8294 23.0681C89.8589 23.0681 89.9164 23.1306 89.9573 23.207C89.9981 23.2834 90.1225 23.3818 90.2337 23.4252C90.3449 23.4689 90.4362 23.5329 90.4362 23.5677C90.4369 23.6281 90.7009 23.7787 90.8071 23.7787C90.8356 23.7787 90.8988 23.8185 90.9475 23.8676C90.9965 23.9162 91.1013 23.9564 91.1802 23.9564C91.2594 23.9564 91.3241 23.983 91.3241 24.0154C91.3241 24.0481 91.4172 24.0747 91.5312 24.0747C91.6453 24.0747 91.7387 24.1014 91.7387 24.134C91.7387 24.1674 91.9125 24.1941 92.1384 24.1952C92.3957 24.1962 92.579 24.2278 92.6529 24.284C92.8014 24.3959 93.2814 24.3959 93.4296 24.284C93.5056 24.2264 93.6907 24.1962 93.9739 24.1952C94.2194 24.1941 94.4034 24.1678 94.4034 24.134C94.4034 24.1014 94.4965 24.0747 94.6105 24.0747C94.7246 24.0747 94.8177 24.0481 94.8177 24.0154C94.8177 23.983 94.8845 23.9564 94.9658 23.9564C95.0579 23.9564 95.114 23.9226 95.114 23.8676C95.114 23.8121 95.1698 23.7787 95.2618 23.7787C95.3435 23.7787 95.41 23.7521 95.41 23.7194C95.41 23.6867 95.4487 23.6601 95.4959 23.6601C95.5436 23.6601 95.6487 23.5936 95.7304 23.5122C95.8118 23.4309 95.8946 23.3641 95.9148 23.3641C95.9632 23.3641 96.1206 23.2053 96.1206 23.1569C96.1206 23.0955 96.2843 22.9494 96.3533 22.9494C96.3881 22.9494 96.4165 22.921 96.4165 22.8862C96.4165 22.8148 96.5632 22.6535 96.6279 22.6535C96.6975 22.6535 96.8272 22.4534 96.8294 22.3426C96.8304 22.2857 96.8578 22.2388 96.8905 22.2388C96.9228 22.2388 96.9494 22.199 96.9494 22.15C96.9494 22.1013 96.9896 22.0612 97.0383 22.0612C97.0873 22.0612 97.1271 22.021 97.1271 21.9716C97.1271 21.8814 97.1473 21.8323 97.3261 21.4895C97.3794 21.3868 97.4234 21.2468 97.4234 21.1786C97.4234 21.1103 97.4501 21.0546 97.4824 21.0546C97.5154 21.0546 97.5417 20.8979 97.5417 20.7028C97.5417 20.5092 97.5684 20.3343 97.6011 20.3144C97.6341 20.2938 97.66 20.0188 97.66 19.6927C97.66 19.3661 97.6341 19.0911 97.6011 19.0709C97.5684 19.0506 97.5417 18.8626 97.5417 18.6527C97.5417 18.4381 97.5158 18.2714 97.4824 18.2714C97.4501 18.2714 97.4234 18.2067 97.4234 18.1275C97.4234 18.0483 97.3833 17.9438 97.3346 17.8948C97.2856 17.8461 97.2458 17.7509 97.2458 17.6834C97.2458 17.6159 97.2191 17.5608 97.1864 17.5608C97.1537 17.5608 97.1271 17.494 97.1271 17.4126C97.1271 17.3206 97.0937 17.2645 97.0383 17.2645C96.9889 17.2645 96.9494 17.2119 96.9494 17.1461C96.9494 17.0811 96.9228 17.0278 96.8905 17.0278C96.8578 17.0278 96.8311 16.9969 96.8311 16.9596C96.8311 16.8349 95.6647 15.7249 95.5336 15.7249C95.4633 15.7249 95.41 15.6869 95.41 15.6361C95.41 15.5806 95.3542 15.5472 95.2618 15.5472C95.1804 15.5472 95.114 15.5206 95.114 15.4879C95.114 15.4556 95.0472 15.4289 94.9658 15.4289C94.8738 15.4289 94.8177 15.3952 94.8177 15.3401C94.8177 15.2779 94.7552 15.2513 94.6105 15.2513C94.4965 15.2513 94.4034 15.2246 94.4034 15.1919C94.4034 15.1589 94.2453 15.1326 94.0481 15.1326C93.8506 15.1326 93.6928 15.1063 93.6928 15.0736C93.6928 15.0374 93.4264 15.0143 93.0117 15.0143C92.5971 15.0143 92.3306 15.0374 92.3306 15.0736ZM63.7295 16.1093V16.9685H64.7954H65.8613V20.5216V24.0747H66.8383H67.8154V20.5216V16.9685H68.8831H69.9504L69.934 16.1246L69.9177 15.2808L66.8238 15.2655L63.7295 15.2502V16.1093ZM80.073 19.6628V24.0747H80.9911H81.9088V22.15V20.2256H83.7741H85.6394V22.15V24.0747H86.6165H87.5935V19.6614V15.2481L86.6314 15.2644L85.6689 15.2808L85.6533 16.8352L85.6373 18.3897H83.773H81.9088V16.8203V15.2513H80.9911H80.073V19.6628ZM102.398 19.6628V24.0747H104.348C105.584 24.0747 106.312 24.053 106.335 24.0154C106.355 23.983 106.462 23.9564 106.571 23.9564C106.681 23.9564 106.811 23.9162 106.86 23.8676C106.909 23.8185 107.004 23.7787 107.071 23.7787C107.139 23.7787 107.194 23.7521 107.194 23.7194C107.194 23.6867 107.243 23.6601 107.304 23.6601C107.365 23.6601 107.464 23.5936 107.525 23.5122C107.587 23.4309 107.659 23.3641 107.686 23.3641C107.756 23.3641 107.905 23.2067 107.905 23.1314C107.905 23.0965 107.938 23.0678 107.978 23.0674C108.062 23.067 108.201 22.8023 108.201 22.6417C108.201 22.5831 108.227 22.5351 108.26 22.5351C108.292 22.5351 108.319 22.4047 108.319 22.2452C108.319 22.0423 108.345 21.9453 108.408 21.9215C108.476 21.8952 108.496 21.7808 108.496 21.4191C108.496 21.0748 108.473 20.9309 108.408 20.8769C108.347 20.8268 108.319 20.6921 108.319 20.4552C108.319 20.2626 108.293 20.1069 108.26 20.1069C108.227 20.1069 108.201 20.0405 108.201 19.9591C108.201 19.8778 108.18 19.811 108.155 19.811C108.129 19.811 108.059 19.7175 107.997 19.6038C107.936 19.4898 107.853 19.3963 107.814 19.3963C107.686 19.3963 107.592 19.2379 107.696 19.1981C107.749 19.1775 107.786 19.09 107.786 18.9838C107.786 18.885 107.813 18.8044 107.845 18.8044C107.882 18.8044 107.905 18.4391 107.905 17.8273C107.905 17.2151 107.882 16.8502 107.845 16.8502C107.813 16.8502 107.786 16.7834 107.786 16.702C107.786 16.61 107.752 16.5538 107.697 16.5538C107.647 16.5538 107.608 16.5009 107.608 16.4327C107.608 16.3094 107.073 15.7249 106.96 15.7249C106.926 15.7249 106.898 15.6847 106.898 15.6361C106.898 15.587 106.846 15.5472 106.783 15.5472C106.72 15.5472 106.651 15.5206 106.631 15.4879C106.611 15.4556 106.503 15.4289 106.391 15.4289C106.249 15.4289 106.187 15.4016 106.187 15.3401C106.187 15.263 105.937 15.2513 104.292 15.2513H102.398V19.6628ZM14.3143 17.0278C14.3346 17.0602 14.4294 17.0868 14.525 17.0868C14.6405 17.0868 14.6991 17.117 14.6991 17.1756C14.6991 17.225 14.7517 17.2645 14.8167 17.2645C14.9716 17.2645 15.8243 18.1176 15.8243 18.2721C15.8243 18.3371 15.8641 18.3897 15.9131 18.3897C15.9686 18.3897 16.002 18.4455 16.002 18.5379C16.002 18.6193 16.0286 18.6857 16.0613 18.6857C16.0936 18.6857 16.1203 18.7909 16.1203 18.9191C16.1203 19.0474 16.1469 19.1689 16.1796 19.1892C16.2123 19.2094 16.2389 19.4507 16.2389 19.7257C16.2389 20.0195 16.2144 20.2256 16.1796 20.2256C16.1469 20.2256 16.1203 20.3322 16.1203 20.4623C16.1203 20.5927 16.0936 20.6992 16.0613 20.6992C16.0286 20.6992 16.002 20.7536 16.002 20.8201C16.002 20.933 15.9689 20.9895 15.7799 21.2006C15.739 21.2457 15.706 21.3051 15.706 21.3321C15.706 21.3594 15.6392 21.4532 15.5578 21.541C15.4765 21.6291 15.4097 21.7286 15.4097 21.7627C15.4097 21.7964 15.3631 21.8252 15.3063 21.8263C15.178 21.8288 14.9954 21.962 14.9954 22.053C14.9954 22.0903 14.9286 22.1205 14.8473 22.1205C14.7659 22.1205 14.6991 22.1471 14.6991 22.1798C14.6991 22.2122 14.6327 22.2388 14.5513 22.2388C14.4699 22.2388 14.4031 22.2655 14.4031 22.2981C14.4031 22.3308 14.2831 22.3575 14.1367 22.3575C13.9391 22.3575 13.8702 22.3802 13.8702 22.4463C13.8702 22.5657 13.3515 22.5643 13.1927 22.4442C13.1294 22.3966 12.9894 22.3575 12.8818 22.3575C12.7741 22.3575 12.686 22.3308 12.686 22.2981C12.686 22.2655 12.6192 22.2388 12.5379 22.2388C12.4565 22.2388 12.3897 22.2122 12.3897 22.1798C12.3897 22.1471 12.3364 22.1205 12.2714 22.1205C12.2064 22.1205 12.1531 22.0938 12.1531 22.0612C12.1531 22.0285 12.0465 21.9556 11.9161 21.8991C11.7857 21.8426 11.6791 21.7627 11.6791 21.7215C11.6791 21.6803 11.6542 21.6469 11.624 21.6469C11.5935 21.6469 11.553 21.5964 11.5334 21.5353C11.5139 21.4738 11.4187 21.3409 11.322 21.2397C11.2254 21.1384 11.1462 21.002 11.1462 20.9366C11.1462 20.8705 11.1071 20.8176 11.0573 20.8176C10.9955 20.8176 10.9685 20.755 10.9685 20.6104C10.9685 20.4964 10.9419 20.4033 10.9095 20.4033C10.8733 20.4033 10.8502 20.1279 10.8502 19.6962C10.8502 19.2887 10.8754 18.9735 10.9095 18.9522C10.9419 18.9323 10.9685 18.8239 10.9685 18.712C10.9685 18.5702 10.9959 18.508 11.0573 18.508C11.1067 18.508 11.1462 18.4555 11.1462 18.3897C11.1462 18.3247 11.1728 18.2714 11.2055 18.2714C11.2382 18.2714 11.2648 18.2433 11.2648 18.2096C11.2648 18.1755 11.3313 18.076 11.4126 17.9879C11.4944 17.9001 11.5608 17.8063 11.5608 17.7789C11.5608 17.7015 11.7018 17.5803 11.8447 17.5349C11.9164 17.5121 11.9754 17.4688 11.9754 17.4382C11.9754 17.408 12.0152 17.3831 12.0642 17.3831C12.1129 17.3831 12.1531 17.3565 12.1531 17.3238C12.1531 17.2911 12.2064 17.2645 12.2714 17.2645C12.3371 17.2645 12.3897 17.225 12.3897 17.1756C12.3897 17.1206 12.4458 17.0868 12.5379 17.0868C12.6192 17.0868 12.686 17.0602 12.686 17.0278C12.686 16.9912 12.9905 16.9685 13.4819 16.9685C13.9484 16.9685 14.293 16.993 14.3143 17.0278ZM30.5096 17.0278C30.5096 17.0602 30.5832 17.0875 30.6727 17.0879C30.7679 17.0886 30.893 17.1497 30.9747 17.236C31.0515 17.3167 31.1648 17.3831 31.2266 17.3831C31.2884 17.3831 31.3389 17.4116 31.3389 17.4464C31.3389 17.5153 31.4846 17.6791 31.546 17.6791C31.5944 17.6791 31.7532 17.8365 31.7532 17.8845C31.7532 17.9193 31.8146 18.001 31.9752 18.1805C32.0161 18.2256 32.0495 18.2913 32.0495 18.3261C32.0495 18.3613 32.0761 18.3897 32.1085 18.3897C32.1411 18.3897 32.1678 18.4565 32.1678 18.5379C32.1678 18.6299 32.2012 18.6857 32.2566 18.6857C32.3223 18.6857 32.3454 18.755 32.3454 18.9522C32.3454 19.0989 32.3721 19.2187 32.4048 19.2187C32.4389 19.2187 32.4638 19.4063 32.4638 19.6628C32.4638 19.9197 32.4389 20.1069 32.4048 20.1069C32.3721 20.1069 32.3454 20.2103 32.3454 20.3368C32.3454 20.4687 32.3078 20.5976 32.2566 20.6399C32.2076 20.6804 32.1678 20.7639 32.1678 20.825C32.1678 20.8861 32.1443 20.9362 32.1156 20.9362C32.0868 20.9362 32.0473 20.9828 32.0285 21.0396C31.9532 21.2635 31.3449 21.9428 31.2195 21.9428C31.1875 21.9428 31.1612 21.9826 31.1612 22.0317C31.1612 22.0811 31.1087 22.1205 31.0426 22.1205C30.9776 22.1205 30.9243 22.1471 30.9243 22.1798C30.9243 22.2122 30.8578 22.2388 30.7761 22.2388C30.6947 22.2388 30.6283 22.2655 30.6283 22.2981C30.6283 22.3308 30.5075 22.3575 30.3597 22.3575C30.176 22.3575 30.0808 22.3852 30.0574 22.4463C30.0343 22.5067 29.9394 22.5351 29.7589 22.5351C29.6029 22.5351 29.4583 22.4985 29.4057 22.4463C29.3571 22.3973 29.227 22.3575 29.1176 22.3575C29.0078 22.3575 28.9016 22.3308 28.8813 22.2981C28.8611 22.2655 28.7662 22.2388 28.6706 22.2388C28.5747 22.2388 28.4965 22.2122 28.4965 22.1798C28.4965 22.1471 28.4564 22.1205 28.4077 22.1205C28.3587 22.1205 28.3189 22.0956 28.3189 22.0654C28.3189 22.0349 28.2599 21.9915 28.1882 21.9688C28.0357 21.9201 27.9043 21.8004 27.9043 21.7101C27.9043 21.6753 27.8844 21.6469 27.8599 21.6465C27.7675 21.6465 27.4897 21.3623 27.4897 21.2677C27.4897 21.2137 27.4499 21.154 27.4008 21.1352C27.3522 21.1164 27.312 21.0521 27.312 20.9924C27.312 20.9327 27.2854 20.8673 27.253 20.8474C27.2203 20.8272 27.1937 20.7458 27.1937 20.6662C27.1937 20.5866 27.167 20.5216 27.1344 20.5216C27.0978 20.5216 27.0754 20.2167 27.0754 19.7257C27.0754 19.2588 27.0999 18.9145 27.1344 18.8932C27.167 18.873 27.1937 18.7781 27.1937 18.6821C27.1937 18.5866 27.2203 18.508 27.253 18.508C27.2854 18.508 27.312 18.4697 27.312 18.4224C27.312 18.3752 27.3788 18.2647 27.4602 18.1769C27.5415 18.0891 27.6083 17.9676 27.6083 17.9072C27.6083 17.8468 27.636 17.7974 27.6701 17.7974C27.7042 17.7974 27.7963 17.7377 27.8744 17.6642C28.1121 17.4421 28.1924 17.3831 28.2571 17.3831C28.2912 17.3831 28.3189 17.3593 28.3189 17.3302C28.3189 17.3011 28.3853 17.2605 28.4667 17.2403C28.5484 17.2197 28.6149 17.1771 28.6149 17.1451C28.6149 17.1131 28.6817 17.0868 28.763 17.0868C28.8444 17.0868 28.9108 17.0602 28.9108 17.0278C28.9108 16.9912 29.2167 16.9685 29.7102 16.9685C30.2037 16.9685 30.5096 16.9912 30.5096 17.0278ZM40.4578 17.0278C40.4578 17.0602 40.5513 17.0868 40.6653 17.0868C40.8099 17.0868 40.8725 17.1138 40.8725 17.1756C40.8725 17.225 40.9251 17.2645 40.9908 17.2645C41.0562 17.2645 41.1095 17.2911 41.1095 17.3238C41.1095 17.3565 41.1446 17.3831 41.1883 17.3831C41.2317 17.3831 41.3027 17.4496 41.3461 17.5309C41.3898 17.6127 41.4495 17.6791 41.479 17.6791C41.5401 17.6791 41.7014 17.8294 41.7014 17.8863C41.7014 17.9477 41.8652 18.0938 41.9341 18.0938C41.9689 18.0938 41.9977 18.1602 41.9977 18.2416C41.9977 18.3233 42.0243 18.3897 42.0567 18.3897C42.0894 18.3897 42.116 18.4437 42.116 18.5102C42.116 18.5763 42.1558 18.6456 42.2048 18.6644C42.2624 18.6864 42.2936 18.7784 42.2936 18.9255C42.2936 19.0503 42.3203 19.1689 42.353 19.1892C42.3853 19.2094 42.412 19.4507 42.412 19.7257C42.412 20.0195 42.3878 20.2256 42.353 20.2256C42.3203 20.2256 42.2936 20.3294 42.2936 20.4562C42.2936 20.6062 42.2627 20.6985 42.2048 20.7206C42.1558 20.7394 42.116 20.7959 42.116 20.8463C42.116 20.9572 41.9931 21.1864 41.9018 21.2457C41.8652 21.2692 41.8019 21.3694 41.7614 21.4678C41.7206 21.5662 41.6637 21.6469 41.6349 21.6469C41.6065 21.6469 41.5831 21.6867 41.5831 21.7357C41.5831 21.7844 41.5337 21.8245 41.4733 21.8245C41.4129 21.8245 41.2917 21.891 41.2036 21.9723C41.1158 22.0541 41.0054 22.1205 40.9581 22.1205C40.9112 22.1205 40.8725 22.1471 40.8725 22.1798C40.8725 22.2122 40.806 22.2388 40.7243 22.2388C40.643 22.2388 40.5765 22.2655 40.5765 22.2981C40.5765 22.3308 40.4557 22.3575 40.3079 22.3575C40.1242 22.3575 40.029 22.3852 40.0056 22.4463C39.9825 22.5067 39.8876 22.5351 39.7071 22.5351C39.5511 22.5351 39.4065 22.4985 39.354 22.4463C39.3053 22.3973 39.187 22.3575 39.091 22.3575C38.9951 22.3575 38.8573 22.3266 38.7844 22.2889C38.5066 22.1454 38.4437 22.1205 38.3566 22.1205C38.3073 22.1205 38.2671 22.0853 38.2671 22.0427C38.2671 22 38.1737 21.9283 38.0596 21.8835C37.9459 21.8387 37.8525 21.7794 37.8525 21.7517C37.8525 21.7236 37.786 21.6291 37.7043 21.541C37.623 21.4532 37.5565 21.3594 37.5565 21.3321C37.5565 21.2617 37.3988 21.1139 37.3238 21.1139C37.289 21.1139 37.2602 21.0471 37.2602 20.9657C37.2602 20.8844 37.2336 20.8176 37.2012 20.8176C37.1685 20.8176 37.1419 20.7245 37.1419 20.6104C37.1419 20.4964 37.1152 20.4033 37.0826 20.4033C37.0463 20.4033 37.0236 20.1169 37.0236 19.6628C37.0236 19.2091 37.0463 18.9227 37.0826 18.9227C37.1152 18.9227 37.1419 18.8292 37.1419 18.7155C37.1419 18.6015 37.1685 18.508 37.2012 18.508C37.2336 18.508 37.2602 18.4548 37.2602 18.3897C37.2602 18.324 37.2996 18.2714 37.349 18.2714C37.3981 18.2714 37.4379 18.2313 37.4379 18.1826C37.4379 18.1335 37.4645 18.0938 37.4972 18.0938C37.5299 18.0938 37.5565 18.066 37.5565 18.0319C37.5565 17.9978 37.5835 17.9381 37.6166 17.8987C37.65 17.8592 37.7232 17.7718 37.7796 17.7043C37.8358 17.6372 37.9687 17.5313 38.0745 17.4698C38.1804 17.408 38.2671 17.3366 38.2671 17.311C38.2671 17.2854 38.3211 17.2645 38.3872 17.2645C38.4533 17.2645 38.5229 17.2247 38.5418 17.1756C38.5602 17.127 38.6395 17.0868 38.7173 17.0868C38.7954 17.0868 38.859 17.0602 38.859 17.0278C38.859 16.9912 39.1649 16.9685 39.6584 16.9685C40.1519 16.9685 40.4578 16.9912 40.4578 17.0278ZM50.2284 17.0278C50.2284 17.0602 50.2924 17.0868 50.3702 17.0868C50.4483 17.0868 50.5272 17.127 50.546 17.1756C50.5649 17.2247 50.6221 17.2645 50.6736 17.2645C50.7247 17.2645 50.8335 17.3313 50.9148 17.4126C50.9962 17.494 51.0854 17.5608 51.1124 17.5608C51.1912 17.5608 51.5313 17.9303 51.5313 18.0159C51.5313 18.0586 51.5547 18.0938 51.5838 18.0938C51.6126 18.0938 51.6805 18.1868 51.7345 18.3009C51.7885 18.415 51.8581 18.508 51.8894 18.508C51.9203 18.508 51.9459 18.5748 51.9459 18.6562C51.9459 18.7376 51.9725 18.8044 52.0049 18.8044C52.0379 18.8044 52.0642 18.9607 52.0642 19.1554C52.0642 19.3885 52.094 19.5363 52.153 19.5953C52.2017 19.644 52.2418 19.7097 52.2418 19.7413C52.2418 19.7726 52.2017 19.8138 52.153 19.8323C52.0891 19.8568 52.0642 19.957 52.0642 20.1904C52.0642 20.3688 52.0376 20.5312 52.0049 20.5511C51.9725 20.5713 51.9459 20.6662 51.9459 20.7621C51.9459 20.8577 51.9185 20.9362 51.8855 20.9362C51.8524 20.9362 51.7793 21.0361 51.7228 21.1583C51.6172 21.3861 51.5096 21.5282 51.4424 21.5282C51.381 21.5282 51.2353 21.692 51.2353 21.7609C51.2353 21.7957 51.2051 21.8245 51.1678 21.8245C51.1308 21.8245 51.0388 21.891 50.9635 21.9723C50.8882 22.0541 50.7851 22.1205 50.7347 22.1205C50.6842 22.1205 50.643 22.1471 50.643 22.1798C50.643 22.2122 50.5645 22.2388 50.4689 22.2388C50.373 22.2388 50.2781 22.2655 50.2583 22.2981C50.2366 22.333 49.8923 22.3575 49.4254 22.3575C48.9344 22.3575 48.6296 22.3347 48.6296 22.2981C48.6296 22.2655 48.5781 22.2388 48.5148 22.2388C48.4516 22.2388 48.3834 22.2122 48.3631 22.1798C48.3432 22.1471 48.275 22.1205 48.2118 22.1205C48.1485 22.1205 48.0966 22.0803 48.0966 22.0317C48.0966 21.9826 48.0686 21.9428 48.0345 21.9428C48 21.9428 47.8867 21.8629 47.7826 21.7655C47.6785 21.6678 47.5733 21.5879 47.5491 21.5879C47.5246 21.5875 47.5047 21.5474 47.5047 21.4987C47.5047 21.4497 47.4781 21.4099 47.4454 21.4099C47.4127 21.4099 47.3861 21.3697 47.3861 21.321C47.3861 21.272 47.3463 21.2322 47.2972 21.2322C47.2478 21.2322 47.2084 21.1796 47.2084 21.1139C47.2084 21.0485 47.1818 20.9952 47.1494 20.9952C47.1167 20.9952 47.0901 20.9288 47.0901 20.8474C47.0901 20.766 47.0634 20.6992 47.0308 20.6992C46.9984 20.6992 46.9718 20.6211 46.9718 20.5259C46.9718 20.4303 46.9316 20.3123 46.883 20.2636C46.8187 20.1997 46.7941 20.0433 46.7941 19.704C46.7941 19.358 46.8176 19.2137 46.883 19.1597C46.9316 19.1192 46.9718 18.9959 46.9718 18.8857C46.9718 18.776 46.9984 18.6857 47.0308 18.6857C47.0634 18.6857 47.0901 18.6193 47.0901 18.5379C47.0901 18.4565 47.1167 18.3897 47.1494 18.3897C47.1818 18.3897 47.2084 18.362 47.2084 18.3279C47.2084 18.27 47.255 18.2028 47.4305 18.0071C47.4713 17.9616 47.5047 17.8958 47.5047 17.861C47.5047 17.8262 47.5324 17.7974 47.5665 17.7974C47.6468 17.7974 47.919 17.5253 47.919 17.445C47.919 17.4108 47.9684 17.3831 48.0288 17.3831C48.0892 17.3831 48.2107 17.3163 48.2985 17.235C48.3937 17.1465 48.5287 17.0868 48.6328 17.0868C48.7287 17.0868 48.8072 17.0602 48.8072 17.0278C48.8072 16.9916 49.0836 16.9685 49.5178 16.9685C49.9523 16.9685 50.2284 16.9916 50.2284 17.0278ZM59.9101 17.0278C59.9304 17.0602 60.0253 17.0868 60.1212 17.0868C60.2168 17.0868 60.2953 17.1138 60.2953 17.1461C60.2953 17.1788 60.4019 17.252 60.5319 17.3082C60.6623 17.3647 60.7689 17.435 60.7689 17.4641C60.7689 17.5245 61.0716 17.7974 61.1391 17.7974C61.1633 17.7974 61.1835 17.8262 61.1835 17.861C61.1835 17.9431 61.3342 18.0938 61.4159 18.0938C61.451 18.0938 61.4795 18.1602 61.4795 18.2416C61.4795 18.3233 61.5061 18.3897 61.5388 18.3897C61.5711 18.3897 61.5978 18.4416 61.5978 18.5045C61.5978 18.5677 61.6244 18.636 61.6571 18.6562C61.6898 18.6765 61.7165 18.772 61.7165 18.8687C61.7165 18.9707 61.7538 19.0591 61.8053 19.079C61.9307 19.127 61.9289 20.1446 61.8031 20.3109C61.7555 20.3741 61.7165 20.4743 61.7165 20.5337C61.7165 20.593 61.6916 20.6879 61.661 20.7444C61.6305 20.8009 61.5708 20.9338 61.5281 21.0396C61.4855 21.1455 61.4237 21.2322 61.3906 21.2322C61.3576 21.2322 61.2926 21.3182 61.2464 21.423C61.143 21.6561 60.8399 21.9428 60.6964 21.9428C60.6385 21.9428 60.5912 21.9826 60.5912 22.0317C60.5912 22.0811 60.5387 22.1205 60.4729 22.1205C60.4076 22.1205 60.3543 22.1471 60.3543 22.1798C60.3543 22.2122 60.2878 22.2388 60.2065 22.2388C60.1251 22.2388 60.0583 22.2655 60.0583 22.2981C60.0583 22.3347 59.7524 22.3575 59.2589 22.3575C58.7654 22.3575 58.4595 22.3347 58.4595 22.2981C58.4595 22.2655 58.366 22.2388 58.2523 22.2388C58.1383 22.2388 58.0448 22.2122 58.0448 22.1798C58.0448 22.1471 58.0079 22.1205 57.9624 22.1205C57.9169 22.1205 57.8647 22.0803 57.8459 22.0317C57.8271 21.9826 57.7709 21.9428 57.7212 21.9428C57.6714 21.9428 57.6306 21.9162 57.6306 21.8835C57.6306 21.8512 57.5904 21.8245 57.5418 21.8245C57.4927 21.8245 57.4529 21.7957 57.4529 21.7609C57.4529 21.692 57.3069 21.5282 57.2454 21.5282C57.163 21.5282 57.0383 21.3527 57.0383 21.2365C57.0383 21.169 57.0145 21.1139 56.9854 21.1139C56.9566 21.1139 56.9161 21.0471 56.8955 20.9657C56.8752 20.8844 56.8322 20.8176 56.8003 20.8176C56.7683 20.8176 56.7423 20.7511 56.7423 20.6698C56.7423 20.5884 56.7157 20.5216 56.683 20.5216C56.6464 20.5216 56.6237 20.2157 56.6237 19.7221C56.6237 19.2286 56.6464 18.9227 56.683 18.9227C56.7157 18.9227 56.7423 18.8324 56.7423 18.7216C56.7423 18.5979 56.7761 18.5077 56.8312 18.4867C56.8798 18.4679 56.92 18.4118 56.92 18.362C56.92 18.3123 56.9466 18.2714 56.979 18.2714C57.0117 18.2714 57.0383 18.2313 57.0383 18.1826C57.0383 18.1335 57.065 18.0938 57.0976 18.0938C57.13 18.0938 57.1566 18.0536 57.1566 18.0049C57.1566 17.9559 57.1815 17.9161 57.212 17.9161C57.2422 17.9161 57.2824 17.8685 57.3009 17.8102C57.319 17.7523 57.421 17.6542 57.5268 17.5924C57.6327 17.5309 57.7624 17.4318 57.815 17.3725C57.8676 17.3131 57.9553 17.2645 58.0093 17.2645C58.0637 17.2645 58.1234 17.2247 58.1418 17.1756C58.1607 17.127 58.2399 17.0868 58.3177 17.0868C58.3959 17.0868 58.4595 17.0602 58.4595 17.0278C58.4595 16.9916 58.7345 16.9685 59.1665 16.9685C59.574 16.9685 59.8892 16.9937 59.9101 17.0278ZM75.4247 17.0278C75.445 17.0602 75.5398 17.0868 75.6354 17.0868C75.7509 17.0868 75.8095 17.117 75.8095 17.1756C75.8095 17.225 75.8621 17.2645 75.9271 17.2645C75.9943 17.2645 76.2348 17.4549 76.4895 17.7097C76.7446 17.9644 76.9347 18.205 76.9347 18.2721C76.9347 18.3371 76.9745 18.3897 77.0235 18.3897C77.079 18.3897 77.1124 18.4455 77.1124 18.5379C77.1124 18.6193 77.139 18.6857 77.1717 18.6857C77.204 18.6857 77.2307 18.7909 77.2307 18.9191C77.2307 19.0474 77.2573 19.1689 77.29 19.1892C77.3227 19.2094 77.3493 19.4507 77.3493 19.7257C77.3493 20.0195 77.3248 20.2256 77.29 20.2256C77.2573 20.2256 77.2307 20.3322 77.2307 20.4623C77.2307 20.5927 77.204 20.6992 77.1717 20.6992C77.139 20.6992 77.1124 20.7536 77.1124 20.8201C77.1124 20.933 77.0793 20.9895 76.8903 21.2006C76.8494 21.2457 76.8164 21.3051 76.8164 21.3321C76.8164 21.3594 76.7496 21.4532 76.6683 21.541C76.5869 21.6291 76.5201 21.7286 76.5201 21.7627C76.5201 21.7964 76.4735 21.8252 76.4167 21.8263C76.2884 21.8288 76.1058 21.962 76.1058 22.053C76.1058 22.0903 76.039 22.1205 75.9577 22.1205C75.8763 22.1205 75.8095 22.1471 75.8095 22.1798C75.8095 22.2122 75.7431 22.2388 75.6617 22.2388C75.5803 22.2388 75.5135 22.2655 75.5135 22.2981C75.5135 22.3308 75.3935 22.3575 75.2471 22.3575C75.0495 22.3575 74.9806 22.3802 74.9806 22.4463C74.9806 22.5657 74.4619 22.5643 74.3031 22.4442C74.2398 22.3966 74.0998 22.3575 73.9922 22.3575C73.8845 22.3575 73.7964 22.3308 73.7964 22.2981C73.7964 22.2655 73.7296 22.2388 73.6483 22.2388C73.5669 22.2388 73.5001 22.2122 73.5001 22.1798C73.5001 22.1471 73.4468 22.1205 73.3818 22.1205C73.3168 22.1205 73.2635 22.0938 73.2635 22.0612C73.2635 22.0285 73.1569 21.9556 73.0265 21.8991C72.8961 21.8426 72.7895 21.7627 72.7895 21.7215C72.7895 21.6803 72.7646 21.6469 72.7344 21.6469C72.7039 21.6469 72.6634 21.5964 72.6438 21.5353C72.6243 21.4738 72.5291 21.3409 72.4324 21.2397C72.3358 21.1384 72.2566 21.002 72.2566 20.9366C72.2566 20.8705 72.2175 20.8176 72.1677 20.8176C72.1059 20.8176 72.0789 20.755 72.0789 20.6104C72.0789 20.4964 72.0523 20.4033 72.02 20.4033C71.9837 20.4033 71.9606 20.1279 71.9606 19.6962C71.9606 19.2887 71.9858 18.9735 72.02 18.9522C72.0523 18.9323 72.0789 18.8239 72.0789 18.712C72.0789 18.5702 72.1063 18.508 72.1677 18.508C72.2171 18.508 72.2566 18.4555 72.2566 18.3897C72.2566 18.3247 72.2832 18.2714 72.3159 18.2714C72.3486 18.2714 72.3752 18.2433 72.3752 18.2096C72.3752 18.1755 72.4417 18.076 72.523 17.9879C72.6048 17.9001 72.6712 17.8063 72.6712 17.7789C72.6712 17.7015 72.8122 17.5803 72.9551 17.5349C73.0268 17.5121 73.0858 17.4688 73.0858 17.4382C73.0858 17.408 73.1256 17.3831 73.1747 17.3831C73.2233 17.3831 73.2635 17.3565 73.2635 17.3238C73.2635 17.2911 73.3168 17.2645 73.3818 17.2645C73.4475 17.2645 73.5001 17.225 73.5001 17.1756C73.5001 17.1206 73.5562 17.0868 73.6483 17.0868C73.7296 17.0868 73.7964 17.0602 73.7964 17.0278C73.7964 16.9912 74.1009 16.9685 74.5923 16.9685C75.0588 16.9685 75.4034 16.993 75.4247 17.0278ZM93.7518 17.0278C93.7518 17.0602 93.8452 17.0868 93.9593 17.0868C94.0908 17.0868 94.1664 17.1152 94.1664 17.1646C94.1664 17.2076 94.2595 17.279 94.3736 17.3238C94.4876 17.3686 94.5811 17.4286 94.5811 17.4574C94.5811 17.5178 94.7317 17.6791 94.7882 17.6791C94.8376 17.6791 94.9953 17.8369 94.9953 17.8863C94.9953 17.9477 95.1591 18.0938 95.2281 18.0938C95.2629 18.0938 95.2916 18.1602 95.2916 18.2416C95.2916 18.3233 95.3183 18.3897 95.3506 18.3897C95.3833 18.3897 95.41 18.4437 95.41 18.5102C95.41 18.5763 95.4498 18.6456 95.4988 18.6644C95.5535 18.6853 95.5876 18.7756 95.5876 18.8992C95.5876 19.0101 95.6143 19.1003 95.6469 19.1003C95.6821 19.1003 95.7059 19.3263 95.7059 19.6593C95.7059 19.9684 95.6796 20.2349 95.6469 20.2551C95.6143 20.2754 95.5876 20.3805 95.5876 20.4893C95.5876 20.6008 95.5528 20.7 95.5073 20.7174C95.4629 20.7344 95.4114 20.8247 95.3929 20.9181C95.3741 21.0112 95.2927 21.1594 95.2114 21.2468C95.1303 21.3345 95.0465 21.4603 95.0255 21.5264C95.0046 21.5925 94.9626 21.6469 94.9321 21.6469C94.9019 21.6469 94.877 21.6803 94.877 21.7215C94.877 21.7627 94.7704 21.8426 94.64 21.8991C94.51 21.9556 94.4034 22.0285 94.4034 22.0612C94.4034 22.0938 94.3501 22.1205 94.2848 22.1205C94.2197 22.1205 94.1664 22.1471 94.1664 22.1798C94.1664 22.2122 94.1 22.2388 94.0183 22.2388C93.9369 22.2388 93.8705 22.2655 93.8705 22.2981C93.8705 22.3347 93.5646 22.3575 93.0711 22.3575C92.5776 22.3575 92.2717 22.3347 92.2717 22.2981C92.2717 22.2655 92.1782 22.2388 92.0642 22.2388C91.9501 22.2388 91.857 22.2122 91.857 22.1798C91.857 22.1471 91.8201 22.1205 91.7746 22.1205C91.7291 22.1205 91.6765 22.0803 91.6581 22.0317C91.6392 21.9826 91.5831 21.9428 91.5333 21.9428C91.4833 21.9428 91.4424 21.9162 91.4424 21.8835C91.4424 21.8512 91.4026 21.8245 91.3536 21.8245C91.3049 21.8245 91.2647 21.7964 91.2647 21.7623C91.2647 21.682 90.9926 21.4099 90.9123 21.4099C90.8782 21.4099 90.8505 21.3434 90.8505 21.2617C90.8505 21.1803 90.8238 21.1139 90.7911 21.1139C90.7585 21.1139 90.7318 21.0595 90.7318 20.9934C90.7318 20.9274 90.692 20.8577 90.643 20.8392C90.5943 20.8204 90.5542 20.7412 90.5542 20.6634C90.5542 20.5852 90.5275 20.5216 90.4952 20.5216C90.4586 20.5216 90.4359 20.2157 90.4359 19.7221C90.4359 19.2286 90.4586 18.9227 90.4952 18.9227C90.5275 18.9227 90.5542 18.8292 90.5542 18.7155C90.5542 18.5706 90.5812 18.508 90.643 18.508C90.6924 18.508 90.7318 18.4555 90.7318 18.3897C90.7318 18.3247 90.7585 18.2714 90.7911 18.2714C90.8238 18.2714 90.8505 18.2433 90.8505 18.2096C90.8505 18.1755 90.9169 18.076 90.9983 17.9879C91.08 17.9001 91.1464 17.7988 91.1464 17.763C91.1464 17.7271 91.2395 17.6475 91.3536 17.586C91.4676 17.5249 91.5611 17.4538 91.5611 17.4286C91.5611 17.4037 91.6009 17.3831 91.6499 17.3831C91.6986 17.3831 91.7387 17.3565 91.7387 17.3238C91.7387 17.2911 91.792 17.2645 91.857 17.2645C91.9228 17.2645 91.9753 17.225 91.9753 17.1756C91.9753 17.1206 92.0315 17.0868 92.1235 17.0868C92.2049 17.0868 92.2717 17.0602 92.2717 17.0278C92.2717 16.9912 92.5577 16.9685 93.0117 16.9685C93.4658 16.9685 93.7518 16.9912 93.7518 17.0278ZM105.358 17.0278C105.358 17.0602 105.425 17.0868 105.506 17.0868C105.588 17.0868 105.654 17.1156 105.654 17.1504C105.654 17.2325 105.805 17.3831 105.887 17.3831C105.926 17.3831 105.95 17.5508 105.95 17.8273C105.95 18.1033 105.926 18.2714 105.887 18.2714C105.805 18.2714 105.654 18.4221 105.654 18.5038C105.654 18.5454 105.409 18.5674 104.944 18.5674H104.233V17.7679V16.9685H104.796C105.131 16.9685 105.358 16.9923 105.358 17.0278ZM105.388 20.4623C105.408 20.4949 105.523 20.5223 105.643 20.5234C105.869 20.5255 106.069 20.6321 106.069 20.7501C106.069 20.7874 106.109 20.8176 106.158 20.8176C106.207 20.8176 106.246 20.8702 106.246 20.9362C106.246 21.0013 106.273 21.0546 106.306 21.0546C106.339 21.0546 106.365 21.2223 106.365 21.4394C106.365 21.6565 106.339 21.8245 106.306 21.8245C106.273 21.8245 106.246 21.8547 106.246 21.8917C106.246 22.0008 105.932 22.2388 105.787 22.2388C105.714 22.2388 105.654 22.2655 105.654 22.2981C105.654 22.3344 105.378 22.3575 104.944 22.3575H104.233V21.3804V20.4033H104.792C105.101 20.4033 105.367 20.4296 105.388 20.4623Z" fill="#7681AC"/>
</svg>
