<svg width="24" height="18" viewBox="0 0 24 18" fill="none" xmlns="http://www.w3.org/2000/svg">
<g opacity="0.2">
<g filter="url(#filter0_d)">
<path d="M11.7673 6.5C10.388 6.5 9.26733 7.62069 9.26733 9C9.26733 10.3793 10.388 11.5 11.7673 11.5C13.1466 11.5 14.2673 10.3793 14.2673 9C14.2673 7.62069 13.1466 6.5 11.7673 6.5ZM11.5777 8.25862C11.2673 8.25862 11.0087 8.51724 11.0087 8.82759H10.1811C10.1984 8.05173 10.8191 7.43104 11.5777 7.43104V8.25862Z" fill="url(#paint0_linear)"/>
</g>
<g filter="url(#filter1_d)">
<path d="M19.3534 8.48276C18.5086 7.43103 15.4914 4 11.7672 4C8.0431 4 5.02586 7.43103 4.18103 8.48276C3.93966 8.77586 3.93966 9.2069 4.18103 9.51724C5.02586 10.569 8.0431 14 11.7672 14C15.4914 14 18.5086 10.569 19.3534 9.51724C19.5948 9.22414 19.5948 8.7931 19.3534 8.48276ZM11.7672 12.6207C9.76724 12.6207 8.14655 11 8.14655 9C8.14655 7 9.76724 5.37931 11.7672 5.37931C13.7672 5.37931 15.3879 7 15.3879 9C15.3879 11 13.7672 12.6207 11.7672 12.6207Z" fill="black"/>
<path d="M19.3534 8.48276C18.5086 7.43103 15.4914 4 11.7672 4C8.0431 4 5.02586 7.43103 4.18103 8.48276C3.93966 8.77586 3.93966 9.2069 4.18103 9.51724C5.02586 10.569 8.0431 14 11.7672 14C15.4914 14 18.5086 10.569 19.3534 9.51724C19.5948 9.22414 19.5948 8.7931 19.3534 8.48276ZM11.7672 12.6207C9.76724 12.6207 8.14655 11 8.14655 9C8.14655 7 9.76724 5.37931 11.7672 5.37931C13.7672 5.37931 15.3879 7 15.3879 9C15.3879 11 13.7672 12.6207 11.7672 12.6207Z" fill="url(#paint1_linear)"/>
</g>
</g>
<defs>
<filter id="filter0_d" x="5.26733" y="2.5" width="13" height="13" filterUnits="userSpaceOnUse" color-interpolation-filters="sRGB">
<feFlood flood-opacity="0" result="BackgroundImageFix"/>
<feColorMatrix in="SourceAlpha" type="matrix" values="0 0 0 0 0 0 0 0 0 0 0 0 0 0 0 0 0 0 127 0"/>
<feOffset/>
<feGaussianBlur stdDeviation="2"/>
<feColorMatrix type="matrix" values="0 0 0 0 0.75 0 0 0 0 0.79 0 0 0 0 1 0 0 0 0.36 0"/>
<feBlend mode="normal" in2="BackgroundImageFix" result="effect1_dropShadow"/>
<feBlend mode="normal" in="SourceGraphic" in2="effect1_dropShadow" result="shape"/>
</filter>
<filter id="filter1_d" x="0" y="0" width="23.5345" height="18" filterUnits="userSpaceOnUse" color-interpolation-filters="sRGB">
<feFlood flood-opacity="0" result="BackgroundImageFix"/>
<feColorMatrix in="SourceAlpha" type="matrix" values="0 0 0 0 0 0 0 0 0 0 0 0 0 0 0 0 0 0 127 0"/>
<feOffset/>
<feGaussianBlur stdDeviation="2"/>
<feColorMatrix type="matrix" values="0 0 0 0 0.75 0 0 0 0 0.79 0 0 0 0 1 0 0 0 0.36 0"/>
<feBlend mode="normal" in2="BackgroundImageFix" result="effect1_dropShadow"/>
<feBlend mode="normal" in="SourceGraphic" in2="effect1_dropShadow" result="shape"/>
</filter>
<linearGradient id="paint0_linear" x1="11.7673" y1="6.5" x2="11.7673" y2="11.5" gradientUnits="userSpaceOnUse">
<stop stop-color="#E9E9E9"/>
<stop offset="1" stop-color="#7389E8"/>
</linearGradient>
<linearGradient id="paint1_linear" x1="11.7672" y1="4" x2="11.7672" y2="14" gradientUnits="userSpaceOnUse">
<stop stop-color="#E9E9E9"/>
<stop offset="1" stop-color="#7389E8"/>
</linearGradient>
</defs>
</svg>
