<svg width="21" height="21" viewBox="0 0 21 21" fill="none" xmlns="http://www.w3.org/2000/svg">
<g filter="url(#filter0_d)">
<path d="M10.4443 4.96884C7.1358 4.96884 4.44434 7.66031 4.44434 10.9688C4.44434 14.2774 7.1358 16.9688 10.4443 16.9688C13.7529 16.9688 16.4443 14.2774 16.4443 10.9688C16.4443 7.66031 13.7529 4.96884 10.4443 4.96884ZM13.2979 14.0723C13.2003 14.1698 13.0724 14.2189 12.9444 14.2189C12.8164 14.2189 12.6883 14.1698 12.5909 14.0723L10.0909 11.5724C9.99683 11.4789 9.94437 11.3518 9.94437 11.2189V7.96884C9.94437 7.69235 10.1683 7.46887 10.4443 7.46887C10.7204 7.46887 10.9443 7.69235 10.9443 7.96884V11.0119L13.2979 13.3653C13.4933 13.5609 13.4933 13.8768 13.2979 14.0723Z" fill="url(#paint0_linear)"/>
</g>
<defs>
<filter id="filter0_d" x="0.444336" y="0.968842" width="20" height="20" filterUnits="userSpaceOnUse" color-interpolation-filters="sRGB">
<feFlood flood-opacity="0" result="BackgroundImageFix"/>
<feColorMatrix in="SourceAlpha" type="matrix" values="0 0 0 0 0 0 0 0 0 0 0 0 0 0 0 0 0 0 127 0"/>
<feOffset/>
<feGaussianBlur stdDeviation="2"/>
<feColorMatrix type="matrix" values="0 0 0 0 0.75 0 0 0 0 0.79 0 0 0 0 1 0 0 0 0.36 0"/>
<feBlend mode="normal" in2="BackgroundImageFix" result="effect1_dropShadow"/>
<feBlend mode="normal" in="SourceGraphic" in2="effect1_dropShadow" result="shape"/>
</filter>
<linearGradient id="paint0_linear" x1="10.4443" y1="4.96884" x2="10.4443" y2="16.9688" gradientUnits="userSpaceOnUse">
<stop stop-color="#E9E9E9"/>
<stop offset="1" stop-color="#7389E8"/>
</linearGradient>
</defs>
</svg>
